"debtor_entry_class";"debtor_entry_class_desc"
"0021";"Insurance Premium"
"0022";"Pension Fund Contribution"
"0023";"Medical Aid Fund Contribution"
"0026";"Unit Trust Purchase"
"0028";"Charitable or religious contributions"
"0031";"H.P. Repayment"
"0032";"Account Repayment"
"0033";"Loan Repayment (other than Mortgage)"
"0034";"Rental-Lease (other than Property)"
"0035";"Service Charge (Maintenance of Service Agreements, etc.)"
"0036";"Service Charge (Variable Amounts)"
"0037";"Value Added Tax (Vat collection)"
"0041";"Rent (Property)"
"0042";"Bond Repayment"
