"id";"frequency_code";"collection_day_code";"collection_desc"
"1";"MNTH";"01";""
"2";"MNTH";"31";""
"3";"WEEK";"01";"Monday"
"4";"WEEK";"02";"Tuesday"
"5";"WEEK";"03";"Wednesday"
"6";"WEEK";"04";"Thursday"
"7";"WEEK";"05";"Friday"
"8";"WEEK";"06";"Saturday"
"9";"WEEK";"07";"Sunday"
