H04UFEC1811241811241811301811300000010023NADREQ    03
B4700100001236517588200000826450ECASHMEUP 15 ROSE S     181130SB SB Maphumulo               181130002
B0510010000300075715100000091015ECASHMEUP 480761021     181130D DL Wagner                   181130002
Z92UFEC0000010000031811301811300000020000000000010000009174650000000000000000001536593303