title,name,surname,phone,email,customerid
Mr,TestUp1,TestUpS1,0861236123,TestUp1601@gmail.com,1811022020380
Mrs,TestUp2,TestUpS3,0871247123,TestUp1602@gmail.com,
Miss,TestUp3,TestUpS4,0881258123,TestUp6013@gmail.com,1811022020381
