Client_Id,Client_Reference_1,Client_Reference_2,Client_ID_Type,Client_ID_No,Initials,Account_Holder,Account_Type,Account_Number,Branch_Code,No_Payments,Service_Type,Service_Mode,Frequency,Action_Date,Bank_Reference,Amount,Status_Code,Status_Description,mandateid,mandateitem,UserCode,IntUserCode
UFEC,88888888,88888888,South African Identification Number,9012265761086,GL,G Molefe,2,10394262303,462005,1,NAEDO,TWO DAY,Monthly ,2019-01-25,ECASHMEUP,799,1,pending ,,,UFEC,UFEC
UFEC,88888889,88888889,South African Identification Number,9012265761087,MP,Mahwayi,2,10394262304,462005,1,NAEDO,TWO DAY,Monthly ,2019-01-26,ECASHMEUP,799,1,pending ,,,UFEC,UFEC
UFEC,88888889,88888889,South African Identification Number,9012265761088,JJ,Baloyi,2,10394262305,462005,1,NAEDO,TWO DAY,Monthly ,2019-01-27,ECASHMEUP,799,1,pending ,,,UFEC,UFEC