Reference 1;Reference 2;ID Type;ID Number;Initials;Account Holder;Account Type;Account Number;Bank Name;Number of Payments;Service Type;Service Mode;Frequency;Action Date;Bank Reference;Amount
88888888;88888888;South African Identification Number;9010000000000;GL;G Molefe;2;10394262303;462005;1;NAEDO;TWO DAY;Monthly ;2019/01/25;ECASHMEUP;799
88888889;88888889;South African Identification Number;9010000000000;MP;Mahwayi;2;10394262304;462005;1;NAEDO;TWO DAY;Monthly ;2019/01/26;ECASHMEUP;799
88888889;88888889;South African Identification Number;9010000000000;JJ;Baloyi;2;10394262305;462005;1;NAEDO;TWO DAY;Monthly ;2019/01/27;ECASHMEUP;799