Reference 1,Reference 2,ID Type,ID Number,Contact Number,Initials,Account Holder,Account Type,Account Number,Bank Name,Number of Payments,Service Type,Frequency,Action Date,Bank Reference,Amount,Notify
88888888,88888888,South African Identification Number,9010000000000,,GL,G Molefe,Cheque Account,10394262303,First National Bank,1,TWO DAY,Once Off,2019-01-25,ECASHMEUP,2.23,Yes
88888889,88888889,,9010000000000,,MP,Mahwayi,Saving Account,10394262304,First National Bank,1,TWO DAY,Fortnightly,2019-01-26,ECASHMEUP,799,No
88888889,88888889,Password,9010000000000,,JJ,Baloyi,Transmission Account,10394262305,Capitec,1,SAMEDAY,First working day of the month,2019-01-27,ECASHMEUP,799,Yes
