﻿Reference 1;Reference 2;ID Type;ID Number;Contact Number;Initials;Account Holder;Account Type;Account Number;Bank Name;Number of Payments;Service Mode;Service Type;Frequency;Action Date;Bank Reference;Amount;Notify
Chomza133;Chomza133;;;;M;Mmathapelo Nomadolo;Cheque Account;60291467568;First National Bank;1;EFT;SAMEDAY;Monthly;2022/02/15;CHOMZA;699;No
Chomza71;Chomza71;;;;S;Ramagaga Seth;Cheque Account;51480013212;First National Bank;1;EFT;SAMEDAY;Monthly;2022/02/15;CHOMZA;899;No
Chomza39;Chomza39;;;;G;Goitseone Madumo;Cheque Account;4078758037;ABSA;1;EFT;SAMEDAY;Monthly;2022/02/15;CHOMZA;499;No
Chomza38;Chomza38;;;;K;Kebogile Mosenogi;Saving Account;1134287907;Capitec;1;EFT;SAMEDAY;Monthly;2022/02/15;CHOMZA;499;No
Chomza138;Chomza138;;;;B;Baiso Modise;Cheque Account;62479920946;First National Bank;1;EFT;SAMEDAY;Monthly;2022/03/15;CHOMZA;699;No
Chomza50;Chomza50;;;;B;Boitumelo Madimabe;Cheque Account;62011875690;First National Bank;1;EFT;SAMEDAY;Monthly;2022/02/15;CHOMZA;499;No
Chomza43;Chomza43;;;;G;Gaone Toolo;Cheque Account;39055760;Standard Bank;1;EFT;SAMEDAY;Monthly;2022/02/15;CHOMZA;699;No
Chomza8;Chomza8;;;;R;Refilwe Mokoto;Cheque Account;62532606433;First National Bank;1;EFT;SAMEDAY;Monthly;2022/02/15;CHOMZA;499;No
Chomza27;Chomza27;;;;O;Otsile Kole;Cheque Account;62812327791;First National Bank;1;EFT;SAMEDAY;Monthly;2022/02/15;CHOMZA;499;No
Chomza85;Chomza85;;;;N;Ntshadi Dithipe;Cheque Account;62128021186;First National Bank;1;EFT;SAMEDAY;Monthly;2022/02/15;CHOMZA;699;No
Chomza19;Chomza19;;;;M;Montshioane Montshioa;Cheque Account;9213177489;ABSA;1;EFT;SAMEDAY;Monthly;2022/02/15;CHOMZA;499;No
Chomza154;Chomza154;;;;S;Silas Bahula;Cheque Account;62154472866;First National Bank;1;EFT;SAMEDAY;Monthly;2022/05/15;CHOMZA;699;No
Chomza62;Chomza62;;;;C;Constance Motlhale;Cheque Account;9339768718;ABSA;1;EFT;SAMEDAY;Monthly;2022/02/15;CHOMZA;699;No
Chomza37;Chomza37;;;;K;Keapoletswe Mothusi;Cheque Account;60291625231;First National Bank;1;EFT;SAMEDAY;Monthly;2022/02/15;CHOMZA;499;No
Chomza55;Chomza55;;;;T;Tiro Legalatladi;Saving Account;1441241602;Capitec;1;EFT;SAMEDAY;Monthly;2022/02/15;CHOMZA;499;No
Chomza109;Chomza109;;;;B;Bareng Albert Marate;Cheque Account;30842212;Standard Bank;1;EFT;SAMEDAY;Monthly;2022/02/15;CHOMZA;499;No
Chomza45;Chomza45;;;;B;Boitumelo Mosadi;Cheque Account;4062538627;ABSA;1;EFT;SAMEDAY;Monthly;2022/02/15;CHOMZA;499;No
Chomza87;Chomza87;;;;G;Gadifele Kepadisa;Cheque Account;32026935;Standard Bank;1;EFT;SAMEDAY;Monthly;2022/02/15;CHOMZA;699;No
Chomza180;Chomza180;;;;M;Matshwenyego Ntau;Cheque Account;62858991732;First National Bank;1;EFT;SAMEDAY;Monthly;2022/03/15;CHOMZA;499;No
Chomza91;Chomza91;;;;N;Neo Tsumane;Cheque Account;230519520;Standard Bank;1;EFT;SAMEDAY;Monthly;2022/02/15;CHOMZA;699;No
Chomza10;Chomza10;;;;M;Molapisi Learning Site;Cheque Account;30877385;Standard Bank;1;EFT;SAMEDAY;Monthly;2022/02/15;CHOMZA;1249;No
Chomza203;Chomza203;;;;D;Ditlamelo;Cheque Account;62643432967;First National Bank;1;EFT;SAMEDAY;Monthly;2022/02/15;CHOMZA;2698;No
Chomza212;Chomza212;;;;M;Mercy Chuma;Saving Account;13420340720;Capitec;1;EFT;SAMEDAY;Monthly;2022/02/15;CHOMZA;699;No
Chomza197;Chomza197;;;;B;Beatrice Setsome;Cheque Account;62097009031;First National Bank;1;EFT;SAMEDAY;Monthly;2022/02/15;CHOMZA;699;No
Chomza191;Chomza191;;;;J;July Machethe;Saving Account;1201347775;Capitec;1;EFT;SAMEDAY;Monthly;2022/02/15;CHOMZA;899;No
Chomza40;Chomza40;;;;M;Mpho Bogacwe;Cheque Account;62067045833;First National Bank;1;EFT;SAMEDAY;Monthly;2022/02/15;CHOMZA;699;No
Chomza136;Chomza136;;;;S;Sello Monyatsi;Cheque Account;1147023735;Nedbank;1;EFT;SAMEDAY;Monthly;2022/03/15;CHOMZA;499;No
Chomza14;Chomza14;;;;VM;VM Disetlhe;Cheque Account;1146010214;Nedbank;1;EFT;SAMEDAY;Monthly;2022/02/15;CHOMZA;499;No
Chomza198;Chomza198;;;;J;Jemima Maqungela;Cheque Account;62075552656;First National Bank;1;EFT;SAMEDAY;Monthly;2022/02/15;CHOMZA;699;No
Chomza179;Chomza179;;;;J;J.O Molefe;Cheque Account;62103429313;First National Bank;1;EFT;SAMEDAY;Monthly;2022/03/15;CHOMZA;699;No
Chomza86;Chomza86;;;;B;Bonnie Makepe;Cheque Account;32025777;Standard Bank;1;EFT;SAMEDAY;Monthly;2022/02/15;CHOMZA;499;No
Chomza113;Chomza113;;;;R;OI Adejayan - Reginald M;Cheque Account;62290086349;First National Bank;1;EFT;SAMEDAY;Monthly;2022/02/15;CHOMZA;1598;No
Chomza95;Chomza95;;;;T;Thato Ditlhokwa;Cheque Account;4087044122;ABSA;1;EFT;SAMEDAY;Monthly;2022/02/15;CHOMZA;499;No
Chomza107;Chomza107;;;;M;Madisa Motsepe;Cheque Account;10142354943;Standard Bank;1;EFT;SAMEDAY;Monthly;2022/02/15;CHOMZA;499;No
Chomza150;Chomza150;;;;JR;MORETI J R;Cheque Account;4059125326;ABSA;1;EFT;SAMEDAY;Monthly;2022/02/15;CHOMZA;499;No
Chomza121;Chomza121;;;;E;Emmanual Lebson;Cheque Account;62737387705;First National Bank;1;EFT;SAMEDAY;Monthly;2022/02/15;CHOMZA;499;No
Chomza33;Chomza33;;;;L;Lucky Morua;Cheque Account;4067779763;ABSA;1;EFT;SAMEDAY;Monthly;2022/02/15;CHOMZA;499;No
Chomza65;Chomza65;;;;M;Mmapula Matsheka;Cheque Account;62088584381;First National Bank;1;EFT;SAMEDAY;Monthly;2022/02/15;CHOMZA;499;No
Chomza47;Chomza47;;;;B;Boipelo Diale;Cheque Account;4062155465;ABSA;1;EFT;SAMEDAY;Monthly;2022/02/17;CHOMZA;499;No
Chomza204;Chomza204;;;;L;Lesego;Cheque Account;62277947366;First National Bank;1;EFT;SAMEDAY;Monthly;2022/02/19;CHOMZA;499;No
Chomza205;Chomza205;;;;R;Ruth;Cheque Account;62818210643;First National Bank;1;EFT;SAMEDAY;Monthly;2022/02/19;CHOMZA;699;No