<soapenv:Envelope xmlns:soapenv="http://schemas.xmlsoap.org/soap/envelope/" xmlns:tub="https://secure.transunion.co.za/TUBureau">
   <soapenv:Header/>
   <soapenv:Body>
      <tub:ModuleRequest>
         <!--Optional:-->
         <tub:ModuleRequest>
            <!--Optional:-->
            <tub:ClientRequestID></tub:ClientRequestID>
            <!--Optional:-->
            <tub:SubscriberCode>04831</tub:SubscriberCode>
            <!--Optional:-->
            <tub:ClientReference></tub:ClientReference>
            <!--Optional:-->
            <tub:BranchNumber></tub:BranchNumber>
            <!--Optional:-->
            <tub:BatchNumber></tub:BatchNumber>
            <!--Optional:-->
            <tub:SecurityCode>XT403</tub:SecurityCode>
            <!--Optional:-->
            <tub:ITNumber>622717478</tub:ITNumber>
            <!--Optional:-->
            <tub:ModuleProductCodes>
               <!--Zero or more repetitions:-->
               <tub:string>5099</tub:string>
               <tub:string>5713</tub:string>
               <tub:string>5837</tub:string>  
               <tub:string>5841</tub:string>                          
            </tub:ModuleProductCodes>
            <tub:EnquiryReason>Other</tub:EnquiryReason>
            <tub:EnquiryAmount>0</tub:EnquiryAmount>
            <!--Optional:-->
            <tub:Terms></tub:Terms>
            <!--Optional:-->
            <tub:UserOnTicket></tub:UserOnTicket>
            <!--Optional:-->
            <tub:ContactForename></tub:ContactForename>
            <!--Optional:-->
            <tub:ContactSurname>testing</tub:ContactSurname>
            <!--Optional:-->
            <tub:ContactPhoneCode>021</tub:ContactPhoneCode>
            <!--Optional:-->
            <tub:ContactPhoneNo>0216853228</tub:ContactPhoneNo>
            <!--Optional:-->
            <tub:ContactFaxCode></tub:ContactFaxCode>
            <!--Optional:-->
            <tub:ContactFaxNo></tub:ContactFaxNo>
            <!--Optional:-->
            <tub:AdditionalClientReference></tub:AdditionalClientReference>
            <!--Optional:-->
            <tub:SubjectPhoneCode></tub:SubjectPhoneCode>
            <!--Optional:-->
            <tub:SubjectPhoneNo></tub:SubjectPhoneNo>
            <!--Optional:-->
            <tub:SubjectNameOnTicket></tub:SubjectNameOnTicket>
            <!--Optional:-->
            <tub:SubjectAddress></tub:SubjectAddress>
            <!--Optional:-->
            <tub:SubjectSuburb></tub:SubjectSuburb>
            <!--Optional:-->
            <tub:SubjectCity></tub:SubjectCity>
            <!--Optional:-->
            <tub:SubjectPostCode></tub:SubjectPostCode>
            <tub:InvestigateOption>No</tub:InvestigateOption>
            <!--Optional:-->
            <tub:BankAccountNo></tub:BankAccountNo>
            <!--Optional:-->
            <tub:BankAbbreviation></tub:BankAbbreviation>
            <!--Optional:-->
            <tub:BankBranch></tub:BankBranch>
            <!--Optional:-->
            <tub:BankBranchCode></tub:BankBranchCode>
            <!--Optional:-->
            <tub:SpecialInstructions></tub:SpecialInstructions>
            <!--Optional:-->
            <tub:BankCreditAmount></tub:BankCreditAmount>
            <!--Optional:-->
            <tub:BankTermsGiven></tub:BankTermsGiven>
            <!--Optional:-->
            <tub:BankAccountHolder></tub:BankAccountHolder>
         </tub:ModuleRequest>
      </tub:ModuleRequest>
   </soapenv:Body>
</soapenv:Envelope>