H04UFEC1808221808221808251808250000010006TWO DAY   01
T1987650001152797700100000030000ECASHMEUP 680170010     180825m mc botes                    180825032
T0510010010037121152200000200000ECASHMEUP 480975503     180825O O Malebye                   180825032
T6320050009256225691100000097593ECASHMEUP 280061042     180825B BP Theron                   180825032
T4700100001564086028100000064500ECASHMEUP 080394510     180825S Soza Ben Mavunda            180825032
Z92UFEC0000010000051808251808250000040000000000010000003920930000000000000000022010230571