accessid,role,parent,parentpage,child,childpage,label,cancreate,canupdate,candelete,ordersequence,parentsequence
124,Super,,SMS,X,sendbulksms,"Send SMS",X,X,X,0,0
135,Super,X,,,bulksmshome,Dashboard,X,X,X,0,0
136,Super,,SMS,X,smstemplates,"SMS Template",X,X,X,0,0
137,Super,,SMS,X,sendbulksms,"Bulk SMS",X,X,X,3,0
138,Super,,Config,X,uploadbulksmscustomers,"Load Customers",X,X,X,0,0
145,Super,X,,,Logout,"Sign out",X,X,X,3,3
