accessid,role,parent,parentpage,child,childpage,label,cancreate,canupdate,candelete,ordersequence,parentsequence
123,Administrator,,SMS,X,sendbulksms,"Send SMS",X,X,X,0,0
127,Administrator,X,,,Logout,"Sign out",X,X,X,3,3
128,Administrator,X,,,,SMS,X,X,X,1,1
129,Administrator,,SMS,X,sendbulksms,"Bulk SMS",X,X,X,3,0
130,Administrator,,SMS,X,smstemplates,"SMS Template",X,X,X,0,0
131,Administrator,,SMS,X,communication,"Usage Report",X,X,X,0,0
132,Administrator,X,,,,Config,X,X,X,2,2
133,Administrator,,Config,X,uploadbulksmscustomers,"Load Customers",X,X,X,0,0
134,Administrator,X,,,bulksmshome,Dashboard,X,X,X,0,0
144,Administrator,,Config,X,users,"User Management",X,X,X,0,0
