69365,645122552,+27645122552,0645122552,NULL,NULL,NULL,Active,NULL,Typed,TOKOLOGO,2019/05/24 11:18
69366,767293693,+27767293693,0767293693,NULL,NULL,NULL,Active,NULL,Typed,TOKOLOGO,2019/05/24 11:20
69367,798502741,+27798502741,0798502741,NULL,NULL,NULL,Active,NULL,Typed,TOKOLOGO,2019/05/24 11:21
69368,762097739,+27762097739,0762097739,NULL,NULL,NULL,Active,NULL,Typed,TOKOLOGO,2019/05/24 11:21
69369,730879330,+27730879330,0730879330,NULL,NULL,NULL,Active,NULL,Typed,TOKOLOGO,2019/05/24 11:21
69370,795979360,+27795979360,0795979360,NULL,NULL,NULL,Active,NULL,Typed,TOKOLOGO,2019/05/24 11:21
69371,661022573,+27661022573,0661022573,NULL,NULL,NULL,Active,NULL,Typed,TOKOLOGO,2019/05/24 11:22
69372,714054648,+27714054648,0714054648,NULL,NULL,NULL,Active,NULL,Typed,TOKOLOGO,2019/05/24 11:22
69373,722278684,+27722278684,0722278684,NULL,NULL,NULL,Active,NULL,Typed,TOKOLOGO,2019/05/24 11:22
69374,723829636,+27723829636,0723829636,NULL,NULL,NULL,Active,NULL,Typed,MIDDELBURG EXT 18,2019/05/24 11:23
69375,729666214,+27729666214,0729666214,NULL,NULL,NULL,Active,NULL,Typed,MIDDELBURG EXT 18,2019/05/24 11:24
69376,769029189,+27769029189,0769029189,NULL,NULL,NULL,Active,NULL,Typed,PULLENSHOPE,2019/05/24 11:24
69377,739974939,+27739974939,0739974939,NULL,NULL,NULL,Active,NULL,Typed,PULLENSHOPE,2019/05/24 11:25
69378,836950033,+27836950033,0836950033,NULL,NULL,NULL,Active,NULL,Typed,MIDDELBURG,2019/05/24 11:25
69379,767742291,+27767742291,0767742291,NULL,NULL,NULL,Active,NULL,Typed,MIDDELBURG,2019/05/24 11:25
69380,826743198,+27826743198,0826743198,NULL,NULL,NULL,Active,NULL,Typed,MHLUZI EXT 2,2019/05/24 11:26
69381,727285033,+27727285033,0727285033,NULL,NULL,NULL,Active,NULL,Typed,MHLUZI EXT 2,2019/05/24 11:27
69382,761859377,+27761859377,0761859377,NULL,NULL,NULL,Active,NULL,Typed,MHLUZI EXT 3,2019/05/24 11:27
69383,790870193,+27790870193,0790870193,NULL,NULL,NULL,Active,NULL,Typed,MHLUZI,2019/05/24 11:28
69384,787200917,+27787200917,0787200917,NULL,NULL,NULL,Active,NULL,Typed,MHLUZI,2019/05/24 11:28
69385,723888470,+27723888470,0723888470,NULL,NULL,NULL,Active,NULL,Typed,PULLENSHOPE,2019/05/24 11:30
69386,764983488,+27764983488,0764983488,NULL,NULL,NULL,Active,NULL,Typed,PULLENSHOPE,2019/05/24 11:30
69387,823904391,+27823904391,0823904391,NULL,NULL,NULL,Active,NULL,Typed,PULLENSHOPE,2019/05/24 11:34
69388,765440212,+27765440212,0765440212,NULL,NULL,NULL,Active,NULL,Typed,TOKOLOGO,2019/05/24 11:35
69389,735181465,+27735181465,0735181465,NULL,NULL,NULL,Active,NULL,Typed,TOKOLOGO,2019/05/24 11:35
69390,619946771,+27619946771,0619946771,NULL,NULL,NULL,Active,NULL,Typed,TOKOLOGO,2019/05/24 11:36
69391,664089239,+27664089239,0664089239,NULL,NULL,NULL,Active,NULL,Typed,TOKOLOGO,2019/05/24 11:36
69392,788419205,+27788419205,0788419205,NULL,NULL,NULL,Active,NULL,Typed,TOKOLOGO,2019/05/24 11:36
69393,726734851,+27726734851,0726734851,NULL,NULL,NULL,Active,NULL,Typed,TOKOLOGO,2019/05/24 11:37
69394,711498355,+27711498355,0711498355,NULL,NULL,NULL,Active,NULL,Typed,TOKOLOGO,2019/05/24 11:37
69395,798980371,+27798980371,0798980371,NULL,NULL,NULL,Active,NULL,Typed,TOKOLOGO,2019/05/24 11:38
69396,762009416,+27762009416,0762009416,NULL,NULL,NULL,Active,NULL,Typed,TOKOLOGO,2019/05/24 11:38
69397,792499856,+27792499856,0792499856,NULL,NULL,NULL,Active,NULL,Typed,TOKOLOGO,2019/05/24 11:38
69398,796603085,+27796603085,0796603085,NULL,NULL,NULL,Active,NULL,Typed,TOKOLOGO,2019/05/24 11:39
69399,608346826,+27608346826,0608346826,NULL,NULL,NULL,Active,NULL,Typed,TOKOLOGO,2019/05/24 11:39
69400,792419404,+27792419404,0792419404,NULL,NULL,NULL,Active,NULL,Typed,TOKOLOGO,2019/05/24 11:39
69401,726775307,+27726775307,0726775307,NULL,NULL,NULL,Active,NULL,Typed,TOKOLOGO,2019/05/24 11:40
69402,660324057,+27660324057,0660324057,NULL,NULL,NULL,Active,NULL,Typed,TOKOLOGO,2019/05/24 11:44
69403,769949837,+27769949837,0769949837,NULL,NULL,NULL,Active,NULL,Typed,TOKOLOGO,2019/05/24 11:44
69404,711472302,+27711472302,0711472302,NULL,NULL,NULL,Active,NULL,Typed,TOKOLOGO,2019/05/24 11:44
69405,814985167,+27814985167,0814985167,NULL,NULL,NULL,Active,NULL,Typed,TOKOLOGO,2019/05/24 11:45
69406,660566062,+27660566062,0660566062,NULL,NULL,NULL,Active,NULL,Typed,TOKOLOGO,2019/05/24 11:49
69407,725525625,+27725525625,0725525625,NULL,NULL,NULL,Active,NULL,Typed,TOKOLOGO,2019/05/24 11:50
69408,737248745,+27737248745,0737248745,NULL,NULL,NULL,Active,NULL,Typed,TOKOLOGO,2019/05/24 11:50
69409,791806776,+27791806776,0791806776,NULL,NULL,NULL,Active,NULL,Typed,TOKOLOGO,2019/05/24 11:50
69410,725398830,+27725398830,0725398830,NULL,NULL,NULL,Active,NULL,Typed,TOKOLOGO,2019/05/24 11:50
69411,795121802,+27795121802,0795121802,NULL,NULL,NULL,Active,NULL,Typed,TOKOLOGO,2019/05/24 11:51
69412,764357018,+27764357018,0764357018,NULL,NULL,NULL,Active,NULL,Typed,TOKOLOGO,2019/05/24 11:51
69413,765998296,+27765998296,0765998296,NULL,NULL,NULL,Active,NULL,Typed,TOKOLOGO,2019/05/24 11:55
69414,711214025,+27711214025,0711214025,NULL,NULL,NULL,Active,NULL,Typed,TOKOLOGO,2019/05/24 11:55
69415,727138315,+27727138315,0727138315,NULL,NULL,NULL,Active,NULL,Typed,TOKOLOGO,2019/05/24 11:56
69416,721299439,+27721299439,0721299439,NULL,NULL,NULL,Active,NULL,Typed,TOKOLOGO,2019/05/24 12:02
69417,760287803,+27760287803,0760287803,NULL,NULL,NULL,Active,NULL,Typed,TOKOLOGO,2019/05/24 12:02
69418,715666512,+27715666512,0715666512,NULL,NULL,NULL,Active,NULL,Typed,TOKOLOGO,2019/05/24 12:02
69419,835559967,+27835559967,0835559967,NULL,NULL,NULL,Active,NULL,Typed,TOKOLOGO,2019/05/24 12:02
69420,795754750,+27795754750,0795754750,NULL,NULL,NULL,Active,NULL,Typed,TOKOLOGO,2019/05/24 12:03
69421,818806683,+27818806683,0818806683,NULL,NULL,NULL,Active,NULL,Typed,TOKOLOGO,2019/05/24 12:03
69422,762711475,+27762711475,0762711475,NULL,NULL,NULL,Active,NULL,Typed,TOKOLOGO,2019/05/24 12:03
69423,735716626,+27735716626,0735716626,NULL,NULL,NULL,Active,NULL,Typed,TOKOLOGO,2019/05/24 12:05
69424,823496414,+27823496414,0823496414,NULL,NULL,NULL,Active,NULL,Typed,TOKOLOGO,2019/05/24 12:05
69425,796889428,+27796889428,0796889428,NULL,NULL,NULL,Active,NULL,Typed,TOKOLOGO,2019/05/24 12:05
69426,729877365,+27729877365,0729877365,NULL,NULL,NULL,Active,NULL,Typed,TOKOLOGO,2019/05/24 12:06
69427,762269855,+27762269855,0762269855,NULL,NULL,NULL,Active,NULL,Typed,TOKOLOGO,2019/05/24 12:06
69428,818041442,+27818041442,0818041442,NULL,NULL,NULL,Active,NULL,Typed,TOKOLOGO,2019/05/24 12:06
69429,713815388,+27713815388,0713815388,NULL,NULL,NULL,Active,NULL,Typed,TOKOLOGO,2019/05/24 12:07
69430,767738761,+27767738761,0767738761,NULL,NULL,NULL,Active,NULL,Typed,TOKOLOGO,2019/05/24 12:07
69431,736750514,+27736750514,0736750514,NULL,NULL,NULL,Active,NULL,Typed,TOKOLOGO,2019/05/24 12:07
69432,823599668,+27823599668,0823599668,NULL,NULL,NULL,Active,NULL,Typed,TOKOLOGO,2019/05/24 12:08
69433,794570916,+27794570916,0794570916,NULL,NULL,NULL,Active,NULL,Typed,TOKOLOGO,2019/05/24 12:08
id,raw_cellnr,27_format,0_format,title,firstname,surname,status,designation,group1,group2,dateadded
69434,822211587,+27822211587,0822211587,NULL,NULL,NULL,Active,NULL,Typed,TOKOLOGO,2019/05/24 12:10
69435,763362683,+27763362683,0763362683,NULL,NULL,NULL,Active,NULL,Typed,TOKOLOGO,2019/05/24 12:10
69436,793555455,+27793555455,0793555455,NULL,NULL,NULL,Active,NULL,Typed,TOKOLOGO,2019/05/24 12:11
69437,664113584,+27664113584,0664113584,NULL,NULL,NULL,Active,NULL,Typed,TOKOLOGO,2019/05/24 12:11
69438,716380284,+27716380284,0716380284,NULL,NULL,NULL,Active,NULL,Typed,TOKOLOGO,2019/05/24 12:11
69439,795445678,+27795445678,0795445678,NULL,NULL,NULL,Active,NULL,Typed,TOKOLOGO,2019/05/24 12:12
69440,827931714,+27827931714,0827931714,NULL,NULL,NULL,Active,NULL,Typed,TOKOLOGO,2019/05/24 12:12
69441,714948472,+27714948472,0714948472,NULL,NULL,NULL,Active,NULL,Typed,TOKOLOGO,2019/05/24 12:13
69442,711867570,+27711867570,0711867570,NULL,NULL,NULL,Active,NULL,Typed,TOKOLOGO,2019/05/24 12:13
69443,648384874,+27648384874,0648384874,NULL,NULL,NULL,Active,NULL,Typed,TOKOLOGO,2019/05/24 12:14
69444,795882594,+27795882594,0795882594,NULL,NULL,NULL,Active,NULL,Typed,TOKOLOGO,2019/05/24 12:14
69445,797957923,+27797957923,0797957923,NULL,NULL,NULL,Active,NULL,Typed,TOKOLOGO,2019/05/24 12:14
69446,760456550,+27760456550,0760456550,NULL,NULL,NULL,Active,NULL,Typed,TOKOLOGO,2019/05/24 12:15
69447,829733141,+27829733141,0829733141,NULL,NULL,NULL,Active,NULL,Typed,TOKOLOGO,2019/05/24 12:15
69448,799775052,+27799775052,0799775052,NULL,NULL,NULL,Active,NULL,Typed,TOKOLOGO,2019/05/24 12:15
69449,721456633,+27721456633,0721456633,NULL,NULL,NULL,Active,NULL,Typed,TOKOLOGO,2019/05/24 12:15
69450,818939004,+27818939004,0818939004,NULL,NULL,NULL,Active,NULL,Typed,TOKOLOGO,2019/05/24 12:15
69451,769104126,+27769104126,0769104126,NULL,NULL,NULL,Active,NULL,Typed,TOKOLOGO,2019/05/24 12:16
69452,735204748,+27735204748,0735204748,NULL,NULL,NULL,Active,NULL,Typed,TOKOLOGO,2019/05/24 12:16
69453,711769371,+27711769371,0711769371,NULL,NULL,NULL,Active,NULL,Typed,TOKOLOGO,2019/05/24 12:16
69454,730535822,+27730535822,0730535822,NULL,NULL,NULL,Active,NULL,Typed,TOKOLOGO,2019/05/24 12:16
69455,763768721,+27763768721,0763768721,NULL,NULL,NULL,Active,NULL,Typed,TOKOLOGO,2019/05/24 12:17
69456,769456939,+27769456939,0769456939,NULL,NULL,NULL,Active,NULL,Typed,TOKOLOGO,2019/05/24 12:17
69457,835154009,+27835154009,0835154009,NULL,NULL,NULL,Active,NULL,Typed,TOKOLOGO,2019/05/24 12:17
69458,710550561,+27710550561,0710550561,NULL,NULL,NULL,Active,NULL,Typed,TOKOLOGO,2019/05/24 12:18
69459,824210694,+27824210694,0824210694,NULL,NULL,NULL,Active,NULL,Typed,TOKOLOGO,2019/05/24 12:19
69460,720910362,+27720910362,0720910362,NULL,NULL,NULL,Active,NULL,Typed,MHLUZI EXT 6,2019/05/24 12:19
69461,660378494,+27660378494,0660378494,NULL,NULL,NULL,Active,NULL,Typed,TOKOLOGO,2019/05/24 12:19
69462,662773507,+27662773507,0662773507,NULL,NULL,NULL,Active,NULL,Typed,MHLUZI EXT 2,2019/05/24 12:21
69463,607403829,+27607403829,0607403829,NULL,NULL,NULL,Active,NULL,Typed,MHLUZI,2019/05/24 12:22
69464,712043117,+27712043117,0712043117,NULL,NULL,NULL,Active,NULL,Typed,MHLUZI,2019/05/24 12:23
69465,713925013,+27713925013,0713925013,NULL,NULL,NULL,Active,NULL,Typed,ROCKDALE EXT 2,2019/05/24 12:23
