name,old
[signature],
[createdby],
[changedby],
[createdon],
[leadid],
[changedon],
[status],
[comments],
[nextofkiname],
[nextofkinphone],
[spousename],
[spousephone],
[employername],
[employerphone],
[occupation],
[creditcheck],
[debitorder],
[marketinformartion],
[salary],
[salarydate],
[otherincome],
[UserCode],
[IntUserCode],
[subgroupext],
[bulksmsclientid],
[bulksmsclientname],
[alias],
[subgroupext2],