"alias","Id","status"  ,"email","accoun","role		   ","hcm     ","lic     ","smspassword","md5 password","bulksmsclientid" 
"marius","1 ","Active"  ,"marius@stlm.gov.co.za","ITS01","Administrator","Active  ","Active  ","marius","$2y$12$uG0Qq4tYvyodmFIpu.bnLu5Fo0U7Ccv/LDsiHoLxv9KYUsBu/M7Ma","STLM"
"lizelle","2 ","Active"  ,"lizelle@stlm.gov.co.za","Cor01","Super","Inactive","Inactive","zellie","$2y$12$3iPgoArMbZinVTA3UvXqhebPZmCegHbpn3pqny7CYexDuLDttBBqm","STLM"
"lorette","3 ","Active"  ,"lorette@stlm.gov.co.za","Fin01","Administrator","Inactive","Inactive","rolojemi1  ","$2y$12$jgBTEbgbYwrZ7mjy8cHDz.o0MrYV1qUZR66QiDE0v7pq0ntTGKuHS","STLM"
"hendrik","5 ","Active"  ,"hendrik@stlm.gov.co.za","Civ01","Super","Inactive","Inactive","civil","$2y$12$N24oGuY1a1HBeB.7J3IFBuG5dwKXtUkcxYY1.ZqqTDw0DKH5EjsvK","STLM"
"jaco","6 ","Active"  ,"jaco@stlm.gov.co.za","ESI02","Super","Inactive","Inactive","esi","$2y$12$9qLP7fu/ktWIFr3UvDszJuzCe8DYd74PkaF2WxS/UKe7/qlfe3cLe","STLM"
"nelani","7 ","Active"  ,"nelani@stlm.gov.co.za","ESI03","Standard","Inactive","Inactive","esi","$2y$12$ukxjmtmesIUk21otJklbDOxrQfDLANfMLl/ibGRryBufaykt4c.ea","STLM"
"pieter","10","Active"  ,"pieter@stlm.gov.co.za","ESI05","Super","Inactive","Inactive","esi123","$2y$12$IaTSX/H6K3yfSMM9.BXSaebQYoaNNZwxVO7cGanMlo/T0qzLcfNx.","STLM"
"ishmael","11","Inactive","ishmael@stlm.gov.co.za","ESI06","Super","Inactive","Inactive","esi123","$2y$12$Fc3/cFvXdU8wEwH/y675WeNYh8PA0UW39tgg0BQk3NG302hmsMANe","STLM"
"angel","14","Active"  ,"angel@stlm.gov.co.za","SWD03","Administrator","Inactive","Inactive","swd3","$2y$12$6ZdEFd.NH3IJkVZV4cgQjuI62rcqjbkRW49/uKAyzzivWGjc7zaFu","STLM"
"lebo","15","Active"  ,"lebo@stlm.gov.co.za","Civ03","Administrator","Inactive","Inactive","civil","$2y$12$WgBo0fQuq1YUwS.TbV27YuyXJDG6sdZWQ1sKhujpOseLKzyNWL2Fu","STLM"
"ntokozo","16","Active"  ,"ntokozo@stlm.gov.co.za","ESI07","Standard","Inactive","Inactive","1234","$2y$12$Bg9MlnRJLm4yRQHj3Fwz7.Cf.Bxna3HZXF7YbpZPK39x4aqCEfYtS","STLM"
"nomvula","18","Active"  ,"nomvula@stlm.gov.co.za","Com01","Super","Inactive","Inactive","com123","$2y$12$VJD8I.Bo76JapjxjXIHVcuSJGc2teLtddldQk.J82Tj5MF6i0On8u","STLM"
"muriel","20","Active"  ,"muriel@stlm.gov.co.za","ITS02","Administrator","Inactive","Inactive","it","$2y$12$oSRYIxihtcP6l1g3ppox2.WQn19ScC6qrWifDpMWAgVStQ2CtTgie","STLM"
"bheki","21","Active"  ,"bheki@stlm.gov.co.za","ESI08","Standard","Inactive","Inactive","esi123","$2y$12$bL7K4ycGvyYfoZfRyk3XWeln8rPQiTxguA3.QVQEK7vYuYSvdFzpC","STLM"
"xolani","22","Active"  ,"xolani@stlm.gov.co.za","ESI09","Standard","Inactive","Inactive","esi123","$2y$12$Ele6nczKg4PHt50O0OS2BOJ1zsth/5izjk99W651y.ZtKV14hxW1a","STLM"
"prudence","23","Active"  ,"prudence@stlm.gov.co.za","Com02","Administrator","Inactive","Inactive","com123","$2y$12$rEfIdiaWkzpkCm/GENwjoel4kymi0uvXlPnyq8TYutGS71MJqb7.G","STLM"
"portia","24","Active"  ,"portia@stlm.gov.co.za","ESI10","Administrator","Inactive","Inactive","esi","$2y$12$UyAtTKN023EZl0h5KB.5Z.1nZjVFyE5qkWaddX4r9CshL3nZ1nzxy","STLM"
"Lucky","26","Active"  ,"Lucky@stlm.gov.co.za","HCM02","Standard ","Active  ","Inactive","lucky","$2y$12$B9Xog3C2Foc50nGLl.XrtuHjSgvjR5MM4JzCJD3q.w854GRk/SF0a","STLM"
"thabo","27","Active"  ,"thabo@stlm.gov.co.za","ESI11","Super","Inactive","Inactive","esi123 ","$2y$12$x4wpO91jFulkCPrhJZs5yu51zo8XUcVL.ysL6eUzv7ML7Uf0LduUS","STLM"
"noma","30","Active"  ,"noma@stlm.gov.co.za","ITS03","Administrator","Active  ","Inactive","its123","$2y$12$nsLUAS/4ixus/B7qml3ssOA9SdfakbBxBpipHiwbRgp/4VgSH.7.y","STLM"
"norbert","31","Active"  ,"norbert@stlm.gov.co.za","ESI12","Standard","Inactive","Inactive","esi123","$2y$12$xNHfLX9BucE0dqxLiXWPteDJruKnSa9/0JWzy1uxjnvR0KkvlwhCG","STLM"
"reggy","33","Active"  ,"reggy@stlm.gov.co.za","HCM05","Standard","Active  ","Inactive","hcm123","$2y$12$dbsfIsI4e7LM7oUhG6GpWe1.XfNO21PPTQPUqd/0HN5OwL5a69yfm","STLM"
"lordie","34","Active"  ,"lordie@stlm.gov.co.za","HCM06","Standard","Active  ","Inactive","hcm123","$2y$12$ALfG78u6zAxijzZIKM3lneZwaVr773r7yd6Bp0XpEYIxuu3ZbmjBu","STLM"
"prudance","35","Active"  ,"prudance@stlm.gov.co.za","HCM07","Standard","Active  ","Inactive","hcm123","$2y$12$b9yumO7yKnDBksjOSlMwKOuHWKhA6mSkSK5SHzTnD4igSguxmpiIe","STLM"
"moses","36","Active"  ,"moses@stlm.gov.co.za","SWD04","Standard","Inactive","Inactive","swd4","$2y$12$q0b2GzkFTWcC2ZFqK2mi6unOPYJsc0IefzANgUQGuCr2WwGu3Veja","STLM"
"nokulunga","37","Active"  ,"nokulunga@stlm.gov.co.za","SWD05","Standard","Inactive","Inactive","swd5","$2y$12$pi4gS.W83NNKKWhHLvB6Oe/U14NXAS254TJy1wQjAuMampX8eGKWu","STLM"
"eric ","38","Active"  ,"eric@stlm.gov.co.za","SWD06","Standard","Inactive","Inactive","swd6","$2y$12$AcI4lY4KiV.FUKoQMXa8ueEdIaa4UPowSrfHGhCqR6ByAohGvQnrm","STLM"
"munsoft","39","Active"  ,"munsoft@stlm.gov.co.za","ITS04","Administrator","Active  ","Inactive","mun123","$2y$12$T6h5iv/jm8u72Q2K7cE7au8s5pZHiPG7UCQExqcSppGfLx5qHyp6q","STLM"
"busi","40","Active"  ,"busi@stlm.gov.co.za","LIC01","Standard","Inactive","Active  ","lic123","$2y$12$9TBIwe.yuWYNIQKHFE5NA.w9zHAUZGl1e4Q3yj5x1QbUypwAQNEBS","STLM"
"candy","41","Active"  ,"candy@stlm.gov.co.za","LIC02","Standard","Inactive","Active  ","lic123","$2y$12$kCtQuhHbg6/2S6sh7KeS4uiPRsRgbi.fnBjCvAu5H5K.Ea0ZUCy7i","STLM"
"gugu","42","Active"  ,"gugu@stlm.gov.co.za","LIC03","Standard","Inactive","Active  ","lic123","$2y$12$3tkpd86pGfS04vvMLbJoSeBWzUgwW.vYeBKNDxk8RBE0KPpnsD5gG","STLM"
"civil","43","Active"  ,"civil@stlm.gov.co.za","Civ05","Standard","Inactive","Inactive","water","$2y$12$.9MJm.DxED6BMvOo302dDevkLUySIejsG8IalqYRkV6yFEHJ3uF0W","STLM"
"johan","45","Active"  ,"johan@stlm.gov.co.za","LIC04","Standard","Inactive","Active  ","lic123","$2y$12$q7v5XA2Z83yHsSr7Woxyrezw6by3/Gpr2jROA1mgp1vWJXNewzImi","STLM"
"patricia","46","Active"  ,"patricia@stlm.gov.co.za","HCM10","Standard","Active  ","Inactive","hcm123","$2y$12$p8UNmVsmbcABqIM48ihIAuSKvsbCyAwG5yXaRVHyj3xWWHSiU3jL6","STLM"
"willemina","47","Active"  ,"willemina@stlm.gov.co.za","INF01","Standard","Inactive","Inactive","infra","$2y$12$iNffHLSyEdxSgcboT/S1b.Fni9OSAQiwp.bs3FR8pTyCUkFDVO3cS","STLM"
"samkelo","48","Active"  ,"samkelo@stlm.gov.co.za","HCM08","Standard","Active  ","Inactive","hcm123","$2y$12$Np0ssI3utJvdUtZm4VYHL.VbZA4sRr00E.3mW9yWVYRIvEGYy4K3e","STLM"






















































































































































































