title,name,surname,email,phone,customerid
Mr,Thulani,Dlamini,,728040003,8410096126084    
Mr,Leepile,Mocwane,,833542546,8101115523084    
Mr,Emmanuel Realeboga,Pule,,786110009,8908075871083    
Mr,Juniper Thabisile,Nkukhu,,719403402,5811250758088    
Mr,Thembinkosi Sam,Kholipha,,736161560,9204055270085    
Mr,Busiswa Cornie,Mtetandaba,,727139247,5406061154088    
Mr,Sephatlhe John,Mokoena,,840435148,5609175206088    
Mr,Dezani Paul,Mthembu,,810551595,5201145204086    
Mr,Johannes,Julander,,765360906,5407095174084    
Mr,Siseko,Mqubule,,824437281,7106055338089    
Mr,Yolisa,Msiya,,763990762,6409190889086    
Mr,Monde Armon,Mbotshane,,823466440,5902026485088    
Mr,Buyisile Emeblah,Dlamini,,791040084,5307050734080    
Mr,Busisile,Diko,,789539806,8403295868085    
Mr,Thomas,Masuku,,792107661,6612145487084    
Mr,Andiswa,Sopela,,832982480,7806190298086    
Mr,Keabetswe Ruth,Thupayatlase,,728527326,6003300670088    
Mr,Nompumelelo Thembisile,Masonto,,736363642,6805250675085    
Mr,Themba Jabulani,Mazibuko,,607585089,9003026465083    
Mr,Winik,Mjikiza,,718223223,7107045824089    
Mr,Sipho,Mahlangu,,723464974,5311255405082    
Mr,Snkwela Joseph,Mohlabane,,736907376,7307105574083    
Mr,Mlamli Hartley,Macanda,,723549816,4503105302086    
Mr,Siviwe,Mntumni,,737135059,8404225631080    
Mr,Lumkile Sydney,Nhose,,783472459,5607155807081    
Mr,Patricia,Phillizilee,,736486323,5809250178083    
Mr,Marthinus Gerhard,Kleinhans,,818572824,7301225207088    
Mr,Cyril Bungumusa,Nondaba,,839932009,8712305854087    
Mr,Christopher,Hendricks,,837250676,7807125188087    
Mr,Ngenisile Elliott,Robile,,737051292,7209015349087    
Mr,Vuyisile,Mfuywa,,710713061,8407106250086    
Mr,Thabo,Jonas,,734241991,7902055364087    
Mr,Slondile Mbali,Msweli,,746852423,8306230903083    
Mr,Shabalala,Nkosindiphile,,736929284,7112065592087    
Mr,Patrick Kevin,Fink,,785926522,7011115209082    
Mr,Makatele Charles,Mofokoane,,722061919,8501235744082    
Mr,Mack,Tsotetsi,,723321865,8001225589084    
Mr,Lulamile,Majikijela,,782820368,7712255194089    
Mr,Nokuzola,Bitterhout,,785233722,6504100745087    
Mr,Thandi Joyce,Khumalo,,728984921,6701080369082    
Mr,Sibusiso,Dube,,784846258,7402185362085    
Mr,Sakhile Brayn,Mahlangu,,824000922,8403155960089    
Mr,Rudeen,Van Der Westhuizen,,768133865,6904125197084    
Mr,Pertunia Mamosheni,Bokaba,,721055087,8101310346083    
Mr,Mzukhona,Dyantyi,,732045591,7110106494081    
Mr,Michael,Mockie,,761155661,8606055145086    
Mr,Marvin,Ryklief,,843295414,7304115130089    
Mr,Mandla Cecil,Ndongela,,711234732,8408175537080    
Mr,Gabaitsane,Mdeketsi,,739747678,6402280545080    
Mr,Faith Thembeki,Mthelezulu,,732916263,6202110350085    
Mr,Bonisile Frank,Mahuza,,842629277,6509065422085    
Mr,Mothusi Marcus,Ntsimane,,735194595,8708205644081    
Mr,Mohlala Paul,Modashoa,,726919831,6208085775081    
Mr,Mlungisi,Dlamini,,724284578,8303105654081    
Mr,Thobile Lorain,Mbili,,732458097,8411110663086    
Mr,Themblihle,Phungula,,732365842,8408190801081    
Mr,Wisoni Collins,Hlungwani,,783614367,8507105456087    
Mr,Makhaya,Tom,,744785348,7506245579080    
Mr,Amos,Ntlamba,,736067769,8712225926080    
Mr,Tebogo Emely,Quibe,,822649664,7006170669089    
Mr,Tetedayi Phindile,Fowl,,833183243,4807015188083    
Mr,Euphet Siyabonga,Nala,,734043313,8410285754084    
Mr,Mamiza Olga,Ntuli,,761883051,6204051034082    
Mr,Vuyani,Hletshwayo,,749333328,6201245367089    
Mr,Irene Nothando,Mathebula,,823974381,7503080597087    
Mr,Thembisile,Matambeka,,719486560,7509106385084    
Mr,Phelelani,Gumede,,727513730,7409095859084    
Mr,Patrick Bawo,Chithibunga,,631936961,6007076186088    
Mr,Magope Eveline,Mamotla,,725537330,6301150858088    
Mr,Rejoyce Vuyokazi,Koni,,790658401,8405051320086    
Mr,Phumzile,Nkosi,,725358649,6203180383089    
Mr,Sambu Mavis Sweetek,Khubheka,,748859028,7112060634082    
Mr,Boyanda,Nomazele,,719667708,7203286113082    
Mr,Zanethemba,King,,746232981,5712135723083    
Mr,Siyabonga,Duma,,726636605,8912085986089    
Mr,Nontsikelelo,Dubula,,835065891,8305200600083    
Mr,Hildegard,Mphuti,,726898987,7902170592083    
Mr,Vincent Gwayo,Nyawo,,727521526,7303235919082    
Mr,Abendnego Musa,Setlale,,797882668,8406235492080    
Mr,Believe Kamogelo,Monareng,,825861305,9005216066084    
Mr,Sanele,Harban,,739454773,8303036467082    
Mr,Malitobe,Jafta,,839816751,5206135194080    
Mr,Sibongile Alice,Nkosi,,721569661,6209260659082    
Mr,Vusimusi Micheal,Makhunga,,762106589,7904285760084    
Mr,Chert,Kraal,,791804992,8209136188082    
Mr,Wellington Welile,Tyobeka,,832063304,5403265585084    
Mr,Joseph,Hadebe,,781674632,7304035780088    
Mr,Charles Fanyane,Ngwenya,,788187185,7704225327089    
Mr,Yimise,Makinana,,836899709,7001135977081    
Mr,Senzo Goodman,Simelane,,713597739,8702116180087    
Mr,Thabiso Khanya Rezanne,Bafo,,714481732,9001040303082    
Mr,Xoliswa,Mengu,,783756197,8309275005087    
Mr,Mwegeni,Ntsini,,761647765,5603275734081    
Mr,Thamara Miriam,Madiba,,711459989,4805270461088    
Mr,David Monaheng,Mahlelebe,,732301515,6210215920181    
Mr,Rogers,Mongwe,,792367328,6709055549083    
Mr,Tshepiso Alexis,Rantilli,,780219446,8412295871080    
Mr,Galerone,Montsho,,735025691,5609215518088    
Mr,Siyabonga Lubabalo Kenneth,Mtlomelo,,839406816,8312305892086    
Mr,Latilang Agnes,Makoti,,716073540,8602140319083    
Mr,Thembinkosi Elphas,Sithole,,732118464,6501315457086    
Mr,Velaphi Nkosingiphile,Ndhlazi,,796396097,7901066082084    
Mr,Paulos,Modihe,,728238517,8209145989082    
Mr,Tebogo,Mocwane,,714130880,8303045467081    
Mr,Matshediso,Qholosha,,728516935,6907100978089    
Mr,Mfana Sipho Humphrey,Jokiah,,825068082,5208215761085    
Mr,Louise Moloko,Motshwene,,729317813,8302265340085    
Mr,Alison,Harris,,732011260,6012110092086    
Mr,Kutioana Richard,Lituka,,735777665,8203045618081    
Mr,Gertrude Lindelwa,Guzana,,718918590,6102250806088    
Mr,Sikile Adelaide,Bhengu,,741641804,4804030287081    
Mr,Mzimasi Goddart,Ncamazaa,,832464918,5211305750083    
Mr,Mpasi,Simama,,832670440,6110135707082    
Mr,Frank,Minnie,,787563925,6810125188082    
Mr,Nombulelo Elizabeth,Ramalepe,,798758615,5304060591089    
Mr,Mokgatlolle Darrick,Moraswi,,818039910,8011185447082    
Mr,Mokgalabe Daniel,Makopo,,729550171,5708115287081    
Mr,Raymond,Shabalala,,766235375,5403245444089    
Mr,Siphiwo,Gqibela,,723543196,6809305770081    
Mr,Khululwa,Fali,,717582221,8509140373087    
Mr,Klaas Ngwakko,Malatji,,727494467,6208215439087    
Mr,Malibongwe,Mketsi,,738879837,7903235612080    
Mr,Nomande,James,,796386260,6408120541080    
Mr,Nozipho Octivia,Nkosi,,826756296,8208101128081    
Mr,Phethile,Ngubeni,,839537449,8407080358087    
Mr,Thuthula Penelope,Mantyi,,764597779,7901210759082    
Mr,Xolani Edga Collins,Guwa,,835300041,6101105871081    
Mr,Zain,Foster,,761470881,8311245228088    
Mr,Zola,Marareni,,734506409,7705056611087    
Mr,Kegomoditswe Patience,Leema,,732588322,7908200618087    
Mr,Simon Sipho,Mtshweni,,824079626,7202285807082    
Mr,Sylvester Meshack,Khoza,,605043901,8307245763082    
Mr,Simon,Motlaung,,840185829,8309105277088    
Mr,Sifiso,Dludlu,,769524416,8907106269085    
Mr,Alice,Mashegwane,,791150989,8505070905088    
Mr,Fanyane Zacharia,Mokoena,,713857479,8905195359080    
Mr,Makako Onicca,Letsoalo,,734944025,8212301081082    
Mr,Theko Sylvester,Twetha,,788330442,8002027470085    
Mr,Mfanakayise,Dhlamini,,715727408,7609215501082    
Mr,Solly Bassie,Seitshiro,,783490300,8005056404081    
Mr,Gladman Mfuthu,Mokoena,,848531490,6102125819084    
Mr,Mampi Colstance,Seetsi,,787191151,7006240910083    
Mr,Mzamo Gladstone,Mbema,,846309283,8908185438088    
Mr,Mushavhani Lesley,Mudua,,815380057,8301205795085    
Mr,Sabelo Musawenkosi,Ndlovu,,721146680,8205106457085    
Mr,Ayabonga,Bhabhi,,837530076,8508265799084    
Mr,Mampho,Makhele,,784960525,8007281099082    
Mr,David Carmong,Sithole,,748764974,7407145265088    
Mr,William Kgataki,Koko,,738543446,5602165460088    
Mr,Lynique,Clarke,,820682516,7907050123081    
Mr,Maluleke,Tsakani,,839962499,7202020690082    
Mr,Nester Thembi,Ndlovu,,717503463,6105200487081    
Mr,Simone,Mallim,,748109022,8510180945081    
Mr,Alfredo Antonio,Matsinhe,,720563147,6410075174180    
Mr,Richard Kenneth,Baleni,,725085357,6210265818087    
Mr,Audrey,Mabunda,,827000376,8106115642081    
Mr,George Tlhogwe,Mathe,,838707920,7809255839083    
Mr,Gerome Emmanuel,Katlanie,,837163104,8311235328088    
Mr,Jerry Baswabile,Maitshotlho,,843586405,8201085745087    
Mr,Johannes,Mashilo,,766033674,7203175877086    
Mr,Kesilwe Iddie,Booysen,,742047948,8101205331083    
Mr,Angelo,Overmeyer,,726063994,8412315077080    
Mr,Mangena Johannes,Shabalala,,760703541,8211045729089    
Mr,Lindumisa Wandile,Mthembu,,844997955,8207015459087    
Mr,Victoria Nomalinge,Madziba,,768013128,6010060917088    
Mr,Elias Jan,Mokgethi,,767400394,8109145471083    
Mr,Welcome Bhekani,Nkwanyana,,785365340,9001085742087    
Mr,Modise,Mohapi,,735355170,7710085914080    
Mr,Hester Lucia Elizabeth,Fivaz,,748201861,7204050254086    
Mr,Zweli Brian,Nkosi,,829262511,8412036011087    
Mr,Sebidi,Setloboko,,837475764,7603125072086    
Mr,Sylvester,Joseph,,789054220,7509125184088    
Mr,Thokozani,Zungu,,848293542,6608065728085    
Mr,Letlhogonolo Macdonald,Kgoro,,722072141,8703095610086    
Mr,Mandla Vusumuzi,Mbayane,,730356414,6707085635088    
Mr,Kaizer Manyane,Kekane,,794755195,7708125635087    
Mr,Mkhululi Moses,Swartbooi,,735355257,8209305869082    
Mr,Bright Sbonelo,Luthuli,,764548320,8210106143081    
Mr,Ethel,Ntanga,,731524442,7209091675082    
Mr,Felicia Ntombekhaya,Mangisa,,795144440,5502140779083    
Mr,Mashaahla Nelson,Molepo,,740382994,8312015596084    
Mr,Nokuthemba,Ntunta,,730782988,8312252370086    
Mr,Cornelia Bolo,Gwambi,,715641965,7308290446087    
Mr,Kgashane Daniel,Malesa,,719091867,7306016199089    
Mr,Lephoi Daniel,Senama,,723709091,5603265224085    
Mr,Nkitimishe Petros,Mabelane,,724028783,7203145642081    
Mr,Kingdom Sandile,Phungula,,735337240,8809285757080    
Mr,Mashudu Samuel,Neluheni,,784049088,6302066011085    
Mr,Mokudu Springbok,Mokhomong,,727389372,7202065435088    
Mr,Pongolosi,Malotane,,733082133,7008056044080    
Mr,Simphiwe Vincent,Nzakam,,722318901,7708295808084    
Mr,Tsepo Patric,Makae,,733690860,8708246159081    
Mr,David Khumbulani,Thabethe,,734753777,7708055307087    
Mr,Five Eckson,Mkhonto,,822107600,7106265581080    
Mr,Margaret Dimakatso,Matlhase,,824123414,7106180700088    
Mr,Sikhumbuzo Henry,Ncala,,739594842,7004035717086    
Mr,Clement Mthandeni,Ntinga,,745116093,8106305295088    
Mr,Thandiswa,Tindleni,,787358264,8107071254085    
Mr,Blessing Mohaetsane,Molefi,,719799440,7807055568084    
Mr,Mazwi,Swartland,,603127691,8112125380084    
