H04UFEC18081518081518081818083100000100038TWO DAY   01
T4700100001564086028100000064500ECASHMEUP 080394510     180818S Soza Ben Mavunda            180818032
T2506550062522438599200000060000VOGSPHERE KitchenD      180823LL LL Peacock                 180823032
T6320050000302231811100000030000ECASHMEUP 680170010     180825m mc botes                    180825032
T0510010010037121152200000305330ECASHMEUP 480975503     180825O O Malebye                   180825032
T6320050009256225691100000097593ECASHMEUP 280061042     180825B BP Theron                   180825032
T4700100001564086028100000064500ECASHMEUP 080394510     180825S Soza Ben Mavunda            180825032
T4700100001336239717200000139260ECASHMEUP 580177570     180829M Motlatsi Mokoaqatsa         180829032
T6320050009322660624200000055926ECASHMEUP 580367003     180829D DP METSWAMERE               180829032
T0510010000300075715100000091015ECASHMEUP 480761021     180830D DL Wagner                   180830032
Z92UFEC0000010000101808181808310000090000000000010000009081240000000000000000096205165365