MAHACS12015-10-050001MANAM001BATCH    
AACTEST REFERENCE                   AC123456789   Y0227RCURMNTH2015-10-052015-11-01ZAR00000000120.00ZAR00000000180.000032MR T TEST                          I/8001285140081                    0000000000052182399CURRENT     0510010113020300                    TTEST@MERCANTILE.CO.ZA                            01YA008.00                 ZAR00000000500.00FIXED      MD16
MATACS10000020000010000000052182399
