RFUNERALS CONTRA UFRF 000001  ,20211008,20215.00,0.00,20215.00,00001,00001,1032,0000001600018742
RFUNERALS CONTRA UFRF 000002  ,20211008,610.00,0.00,20825.00,00001,00001,1032,0000001600018742
002 UNPAIDS/WEIERINGS STANDARD,20211009,-350.00,0.00,20475.00,00001,00001,6059,0000001600018742
045 UNPAIDS/WEIERINGS CAPITEC ,20211009,-10670.00,0.00,9805.00,00001,00001,6059,0000001600018742
002 UNPAIDS/WEIERINGS TYMEBANK,20211009,-670.00,0.00,9135.00,00001,00001,6059,0000001600018742
RFUNERALS CONTRA UFRF 000003  ,20211011,430.00,0.00,9565.00,00001,00001,1032,0000001600018742
001 UNPAIDS/WEIERINGS CAPITEC ,20211011,-300.00,0.00,9265.00,00001,00001,6059,0000001600018742
003 UNPAIDS/WEIERINGS NEDBANK ,20211011,-1030.00,0.00,8235.00,00001,00001,6059,0000001600018742
001 UNPAIDS/WEIERINGS CAPITEC ,20211011,-180.00,0.00,8055.00,00001,00001,6059,0000001600018742
002 UNPAIDS/WEIERINGS FIRSTRAN,20211011,-340.00,0.00,7715.00,00001,00001,6059,0000001600018742
RFUNERALS CONTRA UFRF 000004  ,20211012,180.00,0.00,7895.00,00001,00001,1032,0000001600018742
001 UNPAIDS/WEIERINGS TYMEBANK,20211012,-250.00,0.00,7645.00,00001,00001,6059,0000001600018742
003 UNPAIDS/WEIERINGS NEDBANK ,20211012,-900.00,0.00,6745.00,00001,00001,6059,0000001600018742
001 UNPAIDS/WEIERINGS CAPITEC ,20211013,-180.00,0.00,6565.00,00001,00001,6059,0000001600018742
001 UNPAIDS/WEIERINGS FIRSTRAN,20211013,-180.00,0.00,6385.00,00001,00001,6059,0000001600018742
RFUNERALS CONTRA UFRF 000005  ,20211015,600.00,0.00,6985.00,00001,00001,1032,0000001600018742
RFUNERALS CONTRA UFRF 000006  ,20211015,15644.00,0.00,22629.00,00001,00001,1032,0000001600018742
RFUNERALS CONTRA UFRF 000007  ,20211015,880.00,0.00,23509.00,00001,00001,1032,0000001600018742
RFUNERALS CONTRA UFRF 000008  ,20211016,180.00,0.00,23689.00,00001,00001,1032,0000001600018742
002 UNPAIDS/WEIERINGS TYMEBANK,20211016,-243.00,0.00,23446.00,00001,00001,6059,0000001600018742
007 UNPAIDS/WEIERINGS CAPITEC ,20211016,-1950.00,0.00,21496.00,00001,00001,6059,0000001600018742
001 UNPAIDS/WEIERINGS ABSA.   ,20211016,-300.00,0.00,21196.00,00001,00001,6059,0000001600018742
RFUNERALS CONTRA UFRF 000009  ,20211018,790.00,0.00,21986.00,00001,00001,1032,0000001600018742
001 UNPAIDS/WEIERINGS ABSA.   ,20211018,-250.00,0.00,21736.00,00001,00001,6059,0000001600018742
001 UNPAIDS/WEIERINGS CAPITEC ,20211018,-250.00,0.00,21486.00,00001,00001,6059,0000001600018742
003 UNPAIDS/WEIERINGS FIRSTRAN,20211018,-780.00,0.00,20706.00,00001,00001,6059,0000001600018742
001 UNPAIDS/WEIERINGS NEDBANK ,20211018,-180.00,0.00,20526.00,00001,00001,6059,0000001600018742
002 UNPAIDS/WEIERINGS CAPITEC ,20211018,-626.00,0.00,19900.00,00001,00001,6059,0000001600018742
005 UNPAIDS/WEIERINGS CAPITEC ,20211019,-940.00,0.00,18960.00,00001,00001,6059,0000001600018742
001 UNPAIDS/WEIERINGS NEDBANK ,20211019,-250.00,0.00,18710.00,00001,00001,6059,0000001600018742
RFUNERALS CONTRA UFRF 000010  ,20211020,3510.00,0.00,22220.00,00001,00001,1032,0000001600018742
001 UNPAIDS/WEIERINGS CAPITEC ,20211020,-250.00,0.00,21970.00,00001,00001,6059,0000001600018742
RFUNERALS CONTRA UFRF 000011  ,20211021,830.00,0.00,22800.00,00001,00001,1032,0000001600018742
RFUNERALS CONTRA UFRF 000012  ,20211021,250.00,0.00,23050.00,00001,00001,1032,0000001600018742
001 UNPAIDS/WEIERINGS CAPITEC ,20211021,-180.00,0.00,22870.00,00001,00001,6059,0000001600018742
001 UNPAIDS/WEIERINGS ABSA.   ,20211021,-300.00,0.00,22570.00,00001,00001,6059,0000001600018742
001 UNPAIDS/WEIERINGS BIDVEST ,20211021,-250.00,0.00,22320.00,00001,00001,6059,0000001600018742
RFUNERALS CONTRA UFRF 000014  ,20211022,2560.00,0.00,24880.00,00001,00001,1032,0000001600018742
001 UNPAIDS/WEIERINGS FIRSTRAN,20211022,-180.00,0.00,24700.00,00001,00001,6059,0000001600018742
RFUNERALS CONTRA UFRF 000015  ,20211023,430.00,0.00,25130.00,00001,00001,1032,0000001600018742
001 UNPAIDS/WEIERINGS CAPITEC ,20211023,-180.00,0.00,24950.00,00001,00001,6059,0000001600018742
001 UNPAIDS/WEIERINGS NEDBANK ,20211023,-180.00,0.00,24770.00,00001,00001,6059,0000001600018742
RFUNERALS CONTRA UFRF 000013  ,20211025,24115.00,0.00,48885.00,00001,00001,1032,0000001600018742
RFUNERALS CONTRA UFRF 000016  ,20211025,180.00,0.00,49065.00,00001,00001,1032,0000001600018742
MEB UFRF  CONTRA EBUR UFRF2725,20211025,-15440.60,0.00,33624.40,00001,00001,1053,0000001600018742
001 UNPAIDS/WEIERINGS NEDBANK ,20211025,-250.00,0.00,33374.40,00001,00001,6059,0000001600018742
001 UNPAIDS/WEIERINGS CAPITEC ,20211025,-450.00,0.00,32924.40,00001,00001,6059,0000001600018742
RFUNERALS CONTRA UFRF 000017  ,20211026,9650.00,0.00,42574.40,00001,00001,1032,0000001600018742
RFUNERALS CONTRA UFRF 000018  ,20211026,600.00,0.00,43174.40,00001,00001,1032,0000001600018742
001 UNPAIDS/WEIERINGS STANDARD,20211026,-180.00,0.00,42994.40,00001,00001,6059,0000001600018742
001 UNPAIDS/WEIERINGS STANDARD,20211026,-450.00,0.00,42544.40,00001,00001,6059,0000001600018742
013 UNPAIDS/WEIERINGS CAPITEC ,20211026,-4090.00,0.00,38454.40,00001,00001,6059,0000001600018742
001 UNPAIDS/WEIERINGS STANDARD,20211026,-400.00,0.00,38054.40,00001,00001,6059,0000001600018742
002 UNPAIDS/WEIERINGS ABSA.   ,20211026,-530.00,0.00,37524.40,00001,00001,6059,0000001600018742
RFUNERALS CONTRA UFRF 000020  ,20211027,12865.00,0.00,50389.40,00001,00001,1032,0000001600018742
001 UNPAIDS/WEIERINGS NEDBANK ,20211027,-180.00,0.00,50209.40,00001,00001,6059,0000001600018742
013 UNPAIDS/WEIERINGS CAPITEC ,20211027,-2670.00,0.00,47539.40,00001,00001,6059,0000001600018742
001 UNPAIDS/WEIERINGS FIRSTRAN,20211027,-180.00,0.00,47359.40,00001,00001,6059,0000001600018742
004 UNPAIDS/WEIERINGS FIRSTRAN,20211027,-1190.00,0.00,46169.40,00001,00001,6059,0000001600018742
RFUNERALS CONTRA UFRF 000021  ,20211028,5730.00,0.00,51899.40,00001,00001,1032,0000001600018742
RFUNERALS CONTRA UFRF 000022  ,20211028,720.00,0.00,52619.40,00001,00001,1032,0000001600018742
002 UNPAIDS/WEIERINGS NEDBANK ,20211028,-700.00,0.00,51919.40,00001,00001,6059,0000001600018742
002 UNPAIDS/WEIERINGS ABSA.   ,20211028,-360.00,0.00,51559.40,00001,00001,6059,0000001600018742
001 UNPAIDS/WEIERINGS CAPITEC ,20211028,-250.00,0.00,51309.40,00001,00001,6059,0000001600018742
006 UNPAIDS/WEIERINGS CAPITEC ,20211028,-1530.00,0.00,49779.40,00001,00001,6059,0000001600018742
RFUNERALS CONTRA UFRF 000019  ,20211029,34175.00,0.00,83954.40,00001,00001,1032,0000001600018742
RFUNERALS CONTRA UFRF 000023  ,20211029,610.00,0.00,84564.40,00001,00001,1032,0000001600018742
003 UNPAIDS/WEIERINGS ABSA.   ,20211029,-1530.00,0.00,83034.40,00001,00001,6059,0000001600018742
002 UNPAIDS/WEIERINGS CAPITEC ,20211029,-480.00,0.00,82554.40,00001,00001,6059,0000001600018742
002 UNPAIDS/WEIERINGS CAPITEC ,20211029,-530.00,0.00,82024.40,00001,00001,6059,0000001600018742
001 UNPAIDS/WEIERINGS NEDBANK ,20211029,-220.00,0.00,81804.40,00001,00001,6059,0000001600018742
008 UNPAIDS/WEIERINGS CAPITEC ,20211029,-1750.00,0.00,80054.40,00001,00001,6059,0000001600018742
002 UNPAIDS/WEIERINGS STANDARD,20211029,-360.00,0.00,79694.40,00001,00001,6059,0000001600018742
005 UNPAIDS/WEIERINGS CAPITEC ,20211029,-1130.00,0.00,78564.40,00001,00001,6059,0000001600018742
003 UNPAIDS/WEIERINGS FIRSTRAN,20211029,-1250.00,0.00,77314.40,00001,00001,6059,0000001600018742
RFUNERALS CONTRA UFRF 000024  ,20211030,24420.00,0.00,101734.40,00001,00001,1032,0000001600018742
002 UNPAIDS/WEIERINGS STANDARD,20211030,-480.00,0.00,101254.40,00001,00001,6059,0000001600018742
001 UNPAIDS/WEIERINGS STANDARD,20211030,-300.00,0.00,100954.40,00001,00001,6059,0000001600018742
001 UNPAIDS/WEIERINGS TYMEBANK,20211030,-180.00,0.00,100774.40,00001,00001,6059,0000001600018742
001 UNPAIDS/WEIERINGS ABSA.   ,20211030,-180.00,0.00,100594.40,00001,00001,6059,0000001600018742
002 UNPAIDS/WEIERINGS CAPITEC ,20211030,-360.00,0.00,100234.40,00001,00001,6059,0000001600018742
002 UNPAIDS/WEIERINGS FIRSTRAN,20211030,-430.00,0.00,99804.40,00001,00001,6059,0000001600018742
025 UNPAIDS/WEIERINGS CAPITEC ,20211030,-6020.00,0.00,93784.40,00001,00001,6059,0000001600018742
001 UNPAIDS/WEIERINGS DISC    ,20211030,-180.00,0.00,93604.40,00001,00001,6059,0000001600018742
001 UNPAIDS/WEIERINGS NEDBANK ,20211030,-400.00,0.00,93204.40,00001,00001,6059,0000001600018742
001 UNPAIDS/WEIERINGS ABSA.   ,20211030,-250.00,0.00,92954.40,00001,00001,6059,0000001600018742
RFUNERALS CONTRA UFRF 000027  ,20211102,180.00,0.00,93134.40,00001,00001,1032,0000001600018742
RFUNERALS CONTRA UFRF 000026  ,20211102,5140.00,0.00,98274.40,00001,00001,1032,0000001600018742
MEB UFRF  CONTRA EBUR UFRF3686,20211102,-10979.90,0.00,87294.50,00001,00001,1053,0000001600018742
008 UNPAIDS/WEIERINGS FIRSTRAN,20211102,-2010.00,0.00,85284.50,00001,00001,6059,0000001600018742
001 UNPAIDS/WEIERINGS STANDARD,20211102,-250.00,0.00,85034.50,00001,00001,6059,0000001600018742
001 UNPAIDS/WEIERINGS STANDARD,20211102,-180.00,0.00,84854.50,00001,00001,6059,0000001600018742
001 UNPAIDS/WEIERINGS ABSA.   ,20211102,-250.00,0.00,84604.50,00001,00001,6059,0000001600018742
001 UNPAIDS/WEIERINGS CAPITEC ,20211102,-250.00,0.00,84354.50,00001,00001,6059,0000001600018742
001 UNPAIDS/WEIERINGS FIRSTRAN,20211102,-180.00,0.00,84174.50,00001,00001,6059,0000001600018742
002 UNPAIDS/WEIERINGS CAPITEC ,20211102,-480.00,0.00,83694.50,00001,00001,6059,0000001600018742
001 UNPAIDS/WEIERINGS CAPITEC ,20211102,-300.00,0.00,83394.50,00001,00001,6059,0000001600018742
029 UNPAIDS/WEIERINGS CAPITEC ,20211102,-7060.00,0.00,76334.50,00001,00001,6059,0000001600018742
002 UNPAIDS/WEIERINGS ABSA.   ,20211102,-820.00,0.00,75514.50,00001,00001,6059,0000001600018742
RFUNERALS CONTRA UFRF 000028  ,20211103,1330.00,0.00,76844.50,00001,00001,1032,0000001600018742
MEB UFRF  CONTRA EBUR UFRF4080,20211103,-3253.00,0.00,73591.50,00001,00001,1053,0000001600018742
001 UNPAIDS/WEIERINGS STANDARD,20211103,-180.00,0.00,73411.50,00001,00001,6059,0000001600018742
001 UNPAIDS/WEIERINGS FIRSTRAN,20211103,-250.00,0.00,73161.50,00001,00001,6059,0000001600018742
001 UNPAIDS/WEIERINGS FIRSTRAN,20211103,-180.00,0.00,72981.50,00001,00001,6059,0000001600018742
001 UNPAIDS/WEIERINGS FIRSTRAN,20211103,-350.00,0.00,72631.50,00001,00001,6059,0000001600018742
001 UNPAIDS/WEIERINGS NEDBANK ,20211103,-180.00,0.00,72451.50,00001,00001,6059,0000001600018742
008 UNPAIDS/WEIERINGS CAPITEC ,20211103,-2040.00,0.00,70411.50,00001,00001,6059,0000001600018742
RFUNERALS CONTRA UFRF 000025  ,20211104,6140.00,0.00,76551.50,00001,00001,1032,0000001600018742
RFUNERALS CONTRA UFRF 000029  ,20211104,2470.00,0.00,79021.50,00001,00001,1032,0000001600018742
RFUNERALS CONTRA UFRF 000033  ,20211104,350.00,0.00,79371.50,00001,00001,1032,0000001600018742
RFUNERALS CONTRA UFRF 000030  ,20211104,180.00,0.00,79551.50,00001,00001,1032,0000001600018742
RFUNERALS CONTRA UFRF 000032  ,20211104,3530.00,0.00,83081.50,00001,00001,1032,0000001600018742
RFUNERALS CONTRA UFRF 000031  ,20211104,1590.00,0.00,84671.50,00001,00001,1032,0000001600018742
MEB UFRF  CONTRA EBUR UFRF4326,20211104,-3911.50,0.00,80760.00,00001,00001,1053,0000001600018742
001 UNPAIDS/WEIERINGS CAPITEC ,20211104,-300.00,0.00,80460.00,00001,00001,6059,0000001600018742
003 UNPAIDS/WEIERINGS CAPITEC ,20211104,-980.00,0.00,79480.00,00001,00001,6059,0000001600018742
001 UNPAIDS/WEIERINGS FIRSTRAN,20211104,-180.00,0.00,79300.00,00001,00001,6059,0000001600018742
001 UNPAIDS/WEIERINGS NEDBANK ,20211104,-250.00,0.00,79050.00,00001,00001,6059,0000001600018742
001 UNPAIDS/WEIERINGS NEDBANK ,20211104,-180.00,0.00,78870.00,00001,00001,6059,0000001600018742
RFUNERALS CONTRA UFRF 000035  ,20211105,350.00,0.00,79220.00,00001,00001,1032,0000001600018742
RFUNERALS CONTRA UFRF 000036  ,20211105,6050.00,0.00,85270.00,00001,00001,1032,0000001600018742
MEB UFRF  CONTRA EBUR UFRF4448,20211105,-30061.50,0.00,55208.50,00001,00001,1053,0000001600018742
001 UNPAIDS/WEIERINGS TYMEBANK,20211105,-350.00,0.00,54858.50,00001,00001,6059,0000001600018742
002 UNPAIDS/WEIERINGS CAPITEC ,20211105,-530.00,0.00,54328.50,00001,00001,6059,0000001600018742
003 UNPAIDS/WEIERINGS TYMEBANK,20211105,-710.00,0.00,53618.50,00001,00001,6059,0000001600018742
001 UNPAIDS/WEIERINGS DISC    ,20211105,-180.00,0.00,53438.50,00001,00001,6059,0000001600018742
001 UNPAIDS/WEIERINGS ABSA.   ,20211105,-180.00,0.00,53258.50,00001,00001,6059,0000001600018742
001 UNPAIDS/WEIERINGS ABSA.   ,20211105,-250.00,0.00,53008.50,00001,00001,6059,0000001600018742
003 UNPAIDS/WEIERINGS STANDARD,20211105,-530.00,0.00,52478.50,00001,00001,6059,0000001600018742
014 UNPAIDS/WEIERINGS CAPITEC ,20211105,-3370.00,0.00,49108.50,00001,00001,6059,0000001600018742
009 UNPAIDS/WEIERINGS CAPITEC ,20211105,-2260.00,0.00,46848.50,00001,00001,6059,0000001600018742
RFUNERALS CONTRA UFRF 000037  ,20211106,10315.00,0.00,57163.50,00001,00001,1032,0000001600018742
010 UNPAIDS/WEIERINGS CAPITEC ,20211106,-3050.00,0.00,54113.50,00001,00001,6059,0000001600018742
001 UNPAIDS/WEIERINGS ABSA.   ,20211106,-350.00,0.00,53763.50,00001,00001,6059,0000001600018742
001 UNPAIDS/WEIERINGS CAPITEC ,20211106,-600.00,0.00,53163.50,00001,00001,6059,0000001600018742
001 UNPAIDS/WEIERINGS TYMEBANK,20211106,-180.00,0.00,52983.50,00001,00001,6059,0000001600018742
001 UNPAIDS/WEIERINGS FIRSTRAN,20211106,-100.00,0.00,52883.50,00001,00001,6059,0000001600018742
RFUNERALS CONTRA UFRF 000042  ,20211108,1200.00,0.00,54083.50,00001,00001,1032,0000001600018742
RFUNERALS CONTRA UFRF 000041  ,20211108,220.00,0.00,54303.50,00001,00001,1032,0000001600018742
MEB UFRF  CONTRA EBUR UFRF4582,20211108,-176.50,0.00,54127.00,00001,00001,1053,0000001600018742
005 UNPAIDS/WEIERINGS CAPITEC ,20211108,-980.00,0.00,53147.00,00001,00001,6059,0000001600018742
007 UNPAIDS/WEIERINGS CAPITEC ,20211108,-1460.00,0.00,51687.00,00001,00001,6059,0000001600018742
002 UNPAIDS/WEIERINGS TYMEBANK,20211108,-360.00,0.00,51327.00,00001,00001,6059,0000001600018742
001 UNPAIDS/WEIERINGS FIRSTRAN,20211108,-100.00,0.00,51227.00,00001,00001,6059,0000001600018742
001 UNPAIDS/WEIERINGS ABSA.   ,20211108,-350.00,0.00,50877.00,00001,00001,6059,0000001600018742
RFUNERALS CONTRA UFRF 000044  ,20211109,450.00,0.00,51327.00,00001,00001,1032,0000001600018742
MEB UFRF  CONTRA EBUR UFRF4760,20211109,-3980.00,0.00,47347.00,00001,00001,1053,0000001600018742
001 UNPAIDS/WEIERINGS FIRSTRAN,20211109,-240.00,0.00,47107.00,00001,00001,6059,0000001600018742
003 UNPAIDS/WEIERINGS NEDBANK ,20211109,-1200.00,0.00,45907.00,00001,00001,6059,0000001600018742
001 UNPAIDS/WEIERINGS CAPITEC ,20211109,-220.00,0.00,45687.00,00001,00001,6059,0000001600018742
001 UNPAIDS/WEIERINGS ABSA.   ,20211109,-250.00,0.00,45437.00,00001,00001,6059,0000001600018742
RFUNERALS CONTRA UFRF 000040  ,20211110,5150.00,0.00,50587.00,00001,00001,1032,0000001600018742
RFUNERALS CONTRA UFRF 000039  ,20211110,250.00,0.00,50837.00,00001,00001,1032,0000001600018742
RFUNERALS CONTRA UFRF 000038  ,20211110,2160.00,0.00,52997.00,00001,00001,1032,0000001600018742
001 UNPAIDS/WEIERINGS STANDARD,20211110,-350.00,0.00,52647.00,00001,00001,6059,0000001600018742
001 UNPAIDS/WEIERINGS TYMEBANK,20211110,-180.00,0.00,52467.00,00001,00001,6059,0000001600018742
RFUNERALS CONTRA UFRF 000043  ,20211111,180.00,0.00,52647.00,00001,00001,1032,0000001600018742
MEB UFRF  CONTRA EBUR UFRF4997,20211111,-12256.00,0.00,40391.00,00001,00001,1053,0000001600018742
019 UNPAIDS/WEIERINGS CAPITEC ,20211111,-4280.00,0.00,36111.00,00001,00001,6059,0000001600018742
001 UNPAIDS/WEIERINGS STANDARD,20211111,-100.00,0.00,36011.00,00001,00001,6059,0000001600018742
002 UNPAIDS/WEIERINGS ABSA.   ,20211111,-360.00,0.00,35651.00,00001,00001,6059,0000001600018742
RFUNERALS CONTRA UFRF 000045  ,20211112,180.00,0.00,35831.00,00001,00001,1032,0000001600018742
RFUNERALS CONTRA UFRF 000047  ,20211112,90.00,0.00,35921.00,00001,00001,1032,0000001600018742
RFUNERALS CONTRA UFRF 000049  ,20211112,180.00,0.00,36101.00,00001,00001,1032,0000001600018742
MEB UFRF  CONTRA EBUR UFRF5113,20211112,-2446.00,0.00,33655.00,00001,00001,1053,0000001600018742
001 UNPAIDS/WEIERINGS CAPITEC ,20211112,-180.00,0.00,33475.00,00001,00001,6059,0000001600018742
002 UNPAIDS/WEIERINGS NEDBANK ,20211112,-480.00,0.00,32995.00,00001,00001,6059,0000001600018742
001 UNPAIDS/WEIERINGS FIRSTRAN,20211112,-180.00,0.00,32815.00,00001,00001,6059,0000001600018742
001 UNPAIDS/WEIERINGS CAPITEC ,20211113,-180.00,0.00,32635.00,00001,00001,6059,0000001600018742
001 UNPAIDS/WEIERINGS NEDBANK ,20211113,-180.00,0.00,32455.00,00001,00001,6059,0000001600018742
RFUNERALS CONTRA UFRF 000048  ,20211115,180.00,0.00,32635.00,00001,00001,1032,0000001600018742
RFUNERALS CONTRA UFRF 000052  ,20211115,13565.00,0.00,46200.00,00001,00001,1032,0000001600018742
MEB UFRF  CONTRA EBUR UFRF5199,20211115,-5635.00,0.00,40565.00,00001,00001,1053,0000001600018742
RFUNERALS CONTRA UFRF 000053  ,20211116,180.00,0.00,40745.00,00001,00001,1032,0000001600018742
MEB UFRF  CONTRA EBUR UFRF5453,20211116,-4771.50,0.00,35973.50,00001,00001,1053,0000001600018742
001 UNPAIDS/WEIERINGS TYMEBANK,20211116,-180.00,0.00,35793.50,00001,00001,6059,0000001600018742
001 UNPAIDS/WEIERINGS FIRSTRAN,20211116,-250.00,0.00,35543.50,00001,00001,6059,0000001600018742
007 UNPAIDS/WEIERINGS CAPITEC ,20211116,-1800.00,0.00,33743.50,00001,00001,6059,0000001600018742
001 UNPAIDS/WEIERINGS NEDBANK ,20211116,-600.00,0.00,33143.50,00001,00001,6059,0000001600018742
RFUNERALS CONTRA UFRF 000050  ,20211117,1090.00,0.00,34233.50,00001,00001,1032,0000001600018742
RFUNERALS CONTRA UFRF 000051  ,20211117,610.00,0.00,34843.50,00001,00001,1032,0000001600018742
MEB UFRF  CONTRA EBUR UFRF5597,20211117,-5192.50,0.00,29651.00,00001,00001,1053,0000001600018742
001 UNPAIDS/WEIERINGS FIRSTRAN,20211117,-180.00,0.00,29471.00,00001,00001,6059,0000001600018742
001 UNPAIDS/WEIERINGS FIRSTRAN,20211117,-350.00,0.00,29121.00,00001,00001,6059,0000001600018742
002 UNPAIDS/WEIERINGS CAPITEC ,20211117,-430.00,0.00,28691.00,00001,00001,6059,0000001600018742
RFUNERALS CONTRA UFRF 000054  ,20211118,790.00,0.00,29481.00,00001,00001,1032,0000001600018742
001 UNPAIDS/WEIERINGS ABSA.   ,20211118,-300.00,0.00,29181.00,00001,00001,6059,0000001600018742
001 UNPAIDS/WEIERINGS CAPITEC ,20211118,-250.00,0.00,28931.00,00001,00001,6059,0000001600018742
002 UNPAIDS/WEIERINGS CAPITEC ,20211118,-430.00,0.00,28501.00,00001,00001,6059,0000001600018742
RFUNERALS CONTRA UFRF 000055  ,20211119,300.00,0.00,28801.00,00001,00001,1032,0000001600018742
RFUNERALS CONTRA UFRF 000056  ,20211119,180.00,0.00,28981.00,00001,00001,1032,0000001600018742
MEB UFRF  CONTRA EBUR UFRF5709,20211119,-405.00,0.00,28576.00,00001,00001,1053,0000001600018742
002 UNPAIDS/WEIERINGS CAPITEC ,20211119,-360.00,0.00,28216.00,00001,00001,6059,0000001600018742
001 UNPAIDS/WEIERINGS CAPITEC ,20211119,-250.00,0.00,27966.00,00001,00001,6059,0000001600018742
RFUNERALS CONTRA UFRF 000058  ,20211120,4520.00,0.00,32486.00,00001,00001,1032,0000001600018742
MEB UFRF  CONTRA EBUR UFRF5775,20211122,-5486.00,0.00,27000.00,00001,00001,1053,0000001600018742
001 UNPAIDS/WEIERINGS BIDVEST ,20211122,-250.00,0.00,26750.00,00001,00001,6059,0000001600018742
001 UNPAIDS/WEIERINGS CAPITEC ,20211122,-180.00,0.00,26570.00,00001,00001,6059,0000001600018742
001 UNPAIDS/WEIERINGS CAPITEC ,20211122,-180.00,0.00,26390.00,00001,00001,6059,0000001600018742
001 UNPAIDS/WEIERINGS STANDARD,20211122,-180.00,0.00,26210.00,00001,00001,6059,0000001600018742
001 UNPAIDS/WEIERINGS ABSA.   ,20211122,-300.00,0.00,25910.00,00001,00001,6059,0000001600018742
004 UNPAIDS/WEIERINGS FIRSTRAN,20211123,-790.00,0.00,25120.00,00001,00001,6059,0000001600018742
RFUNERALS CONTRA UFRF 000057  ,20211124,2290.00,0.00,27410.00,00001,00001,1032,0000001600018742
MEB UFRF  CONTRA EBUR UFRF6046,20211124,-410.00,0.00,27000.00,00001,00001,1053,0000001600018742
002 UNPAIDS/WEIERINGS NEDBANK ,20211124,-660.00,0.00,26340.00,00001,00001,6059,0000001600018742
RFUNERALS CONTRA UFRF 000063  ,20211125,180.00,0.00,26520.00,00001,00001,1032,0000001600018742
001 UNPAIDS/WEIERINGS CAPITEC ,20211125,-360.00,0.00,26160.00,00001,00001,6059,0000001600018742
001 UNPAIDS/WEIERINGS ABSA.   ,20211125,-530.00,0.00,25630.00,00001,00001,6059,0000001600018742
RFUNERALS CONTRA UFRF 000059  ,20211126,700.00,0.00,26330.00,00001,00001,1032,0000001600018742
RFUNERALS CONTRA UFRF 000061  ,20211126,490.00,0.00,26820.00,00001,00001,1032,0000001600018742
RFUNERALS CONTRA UFRF 000060  ,20211126,25952.00,0.00,52772.00,00001,00001,1032,0000001600018742
RFUNERALS CONTRA UFRF 000062  ,20211126,9580.00,0.00,62352.00,00001,00001,1032,0000001600018742
RFUNERALS CONTRA UFRF 000064  ,20211126,90.00,0.00,62442.00,00001,00001,1032,0000001600018742
MEB UFRF  CONTRA EBUR UFRF6394,20211126,-9309.50,0.00,53132.50,00001,00001,1053,0000001600018742
001 UNPAIDS/WEIERINGS NEDBANK ,20211126,-250.00,0.00,52882.50,00001,00001,6059,0000001600018742
001 UNPAIDS/WEIERINGS ABSA.   ,20211126,-250.00,0.00,52632.50,00001,00001,6059,0000001600018742
001 UNPAIDS/WEIERINGS CAPITEC ,20211126,-180.00,0.00,52452.50,00001,00001,6059,0000001600018742
RFUNERALS CONTRA UFRF 000066  ,20211127,13805.00,0.00,66257.50,00001,00001,1032,0000001600018742
001 UNPAIDS/WEIERINGS BIDVEST ,20211127,-490.00,0.00,65767.50,00001,00001,6059,0000001600018742
018 UNPAIDS/WEIERINGS CAPITEC ,20211127,-4990.00,0.00,60777.50,00001,00001,6059,0000001600018742
001 UNPAIDS/WEIERINGS STANDARD,20211127,-450.00,0.00,60327.50,00001,00001,6059,0000001600018742
002 UNPAIDS/WEIERINGS STANDARD,20211127,-480.00,0.00,59847.50,00001,00001,6059,0000001600018742
001 UNPAIDS/WEIERINGS CAPITEC ,20211127,-90.00,0.00,59757.50,00001,00001,6059,0000001600018742
001 UNPAIDS/WEIERINGS ABSA.   ,20211127,-350.00,0.00,59407.50,00001,00001,6059,0000001600018742
RFUNERALS CONTRA UFRF 000067  ,20211129,10780.00,0.00,70187.50,00001,00001,1032,0000001600018742
MEB UFRF  CONTRA EBUR UFRF6593,20211129,-4068.00,0.00,66119.50,00001,00001,1053,0000001600018742
002 UNPAIDS/WEIERINGS NEDBANK ,20211129,-1050.00,0.00,65069.50,00001,00001,6059,0000001600018742
005 UNPAIDS/WEIERINGS FIRSTRAN,20211129,-1600.00,0.00,63469.50,00001,00001,6059,0000001600018742
001 UNPAIDS/WEIERINGS CAPITEC ,20211129,-180.00,0.00,63289.50,00001,00001,6059,0000001600018742
001 UNPAIDS/WEIERINGS ABSA.   ,20211129,-180.00,0.00,63109.50,00001,00001,6059,0000001600018742
001 UNPAIDS/WEIERINGS CAPITEC ,20211129,-250.00,0.00,62859.50,00001,00001,6059,0000001600018742
007 UNPAIDS/WEIERINGS CAPITEC ,20211129,-1860.00,0.00,60999.50,00001,00001,6059,0000001600018742
001 UNPAIDS/WEIERINGS CAPITEC ,20211129,-250.00,0.00,60749.50,00001,00001,6059,0000001600018742
002 UNPAIDS/WEIERINGS CAPITEC ,20211129,-710.00,0.00,60039.50,00001,00001,6059,0000001600018742
RFUNERALS CONTRA UFRF 000069  ,20211130,360.00,0.00,60399.50,00001,00001,1032,0000001600018742
RFUNERALS CONTRA UFRF 000070  ,20211130,180.00,0.00,60579.50,00001,00001,1032,0000001600018742
RFUNERALS CONTRA UFRF 000068  ,20211130,50654.00,0.00,111233.50,00001,00001,1032,0000001600018742
001 UNPAIDS/WEIERINGS FIRSTRAN,20211130,-790.00,0.00,110443.50,00001,00001,6059,0000001600018742
014 UNPAIDS/WEIERINGS CAPITEC ,20211130,-3430.00,0.00,107013.50,00001,00001,6059,0000001600018742
003 UNPAIDS/WEIERINGS ABSA.   ,20211130,-1530.00,0.00,105483.50,00001,00001,6059,0000001600018742
001 UNPAIDS/WEIERINGS TYMEBANK,20211130,-350.00,0.00,105133.50,00001,00001,6059,0000001600018742
003 UNPAIDS/WEIERINGS NEDBANK ,20211130,-850.00,0.00,104283.50,00001,00001,6059,0000001600018742
001 UNPAIDS/WEIERINGS STANDARD,20211130,-180.00,0.00,104103.50,00001,00001,6059,0000001600018742
RFUNERALS CONTRA UFRF 000071  ,20211201,24920.00,0.00,129023.50,00001,00001,1032,0000001600018742
004 UNPAIDS/WEIERINGS STANDARD,20211201,-960.00,0.00,128063.50,00001,00001,6059,0000001600018742
002 UNPAIDS/WEIERINGS CAPITEC ,20211201,-530.00,0.00,127533.50,00001,00001,6059,0000001600018742
001 UNPAIDS/WEIERINGS STANDARD,20211201,-180.00,0.00,127353.50,00001,00001,6059,0000001600018742
001 UNPAIDS/WEIERINGS STANDARD,20211201,-250.00,0.00,127103.50,00001,00001,6059,0000001600018742
010 UNPAIDS/WEIERINGS ABSA.   ,20211201,-2390.00,0.00,124713.50,00001,00001,6059,0000001600018742
002 UNPAIDS/WEIERINGS TYMEBANK,20211201,-530.00,0.00,124183.50,00001,00001,6059,0000001600018742
001 UNPAIDS/WEIERINGS DISC    ,20211201,-360.00,0.00,123823.50,00001,00001,6059,0000001600018742
001 UNPAIDS/WEIERINGS BIDVEST ,20211201,-180.00,0.00,123643.50,00001,00001,6059,0000001600018742
003 UNPAIDS/WEIERINGS FIRSTRAN,20211201,-610.00,0.00,123033.50,00001,00001,6059,0000001600018742
069 UNPAIDS/WEIERINGS CAPITEC ,20211201,-17080.00,0.00,105953.50,00001,00001,6059,0000001600018742
RFUNERALS CONTRA UFRF 000073  ,20211202,260.00,0.00,106213.50,00001,00001,1032,0000001600018742
RFUNERALS CONTRA UFRF 000072  ,20211202,6000.00,0.00,112213.50,00001,00001,1032,0000001600018742
001 UNPAIDS/WEIERINGS CAPITEC ,20211202,-300.00,0.00,111913.50,00001,00001,6059,0000001600018742
003 UNPAIDS/WEIERINGS FIRSTRAN,20211202,-1490.00,0.00,110423.50,00001,00001,6059,0000001600018742
001 UNPAIDS/WEIERINGS NEDBANK ,20211202,-540.00,0.00,109883.50,00001,00001,6059,0000001600018742
002 UNPAIDS/WEIERINGS FIRSTRAN,20211202,-480.00,0.00,109403.50,00001,00001,6059,0000001600018742
001 UNPAIDS/WEIERINGS STANDARD,20211202,-250.00,0.00,109153.50,00001,00001,6059,0000001600018742
009 UNPAIDS/WEIERINGS FIRSTRAN,20211202,-2700.00,0.00,106453.50,00001,00001,6059,0000001600018742
033 UNPAIDS/WEIERINGS CAPITEC ,20211202,-7790.00,0.00,98663.50,00001,00001,6059,0000001600018742
001 UNPAIDS/WEIERINGS STANDARD,20211202,-180.00,0.00,98483.50,00001,00001,6059,0000001600018742
003 UNPAIDS/WEIERINGS ABSA.   ,20211202,-900.00,0.00,97583.50,00001,00001,6059,0000001600018742
001 UNPAIDS/WEIERINGS FIRSTRAN,20211202,-180.00,0.00,97403.50,00001,00001,6059,0000001600018742
003 UNPAIDS/WEIERINGS NEDBANK ,20211202,-1540.00,0.00,95863.50,00001,00001,6059,0000001600018742
RFUNERALS CONTRA UFRF 000074  ,20211203,5160.00,0.00,101023.50,00001,00001,1032,0000001600018742
RFUNERALS CONTRA UFRF 000075  ,20211203,270.00,0.00,101293.50,00001,00001,1032,0000001600018742
002 UNPAIDS/WEIERINGS FIRSTRAN,20211203,-430.00,0.00,100863.50,00001,00001,6059,0000001600018742
009 UNPAIDS/WEIERINGS NEDBANK ,20211203,-2280.00,0.00,98583.50,00001,00001,6059,0000001600018742
007 UNPAIDS/WEIERINGS CAPITEC ,20211203,-1650.00,0.00,96933.50,00001,00001,6059,0000001600018742
001 UNPAIDS/WEIERINGS TYMEBANK,20211203,-180.00,0.00,96753.50,00001,00001,6059,0000001600018742
001 UNPAIDS/WEIERINGS STANDARD,20211203,-180.00,0.00,96573.50,00001,00001,6059,0000001600018742
001 UNPAIDS/WEIERINGS STANDARD,20211203,-300.00,0.00,96273.50,00001,00001,6059,0000001600018742
RFUNERALS CONTRA UFRF 000076  ,20211204,5700.00,0.00,101973.50,00001,00001,1032,0000001600018742
002 UNPAIDS/WEIERINGS STANDARD,20211204,-280.00,0.00,101693.50,00001,00001,6059,0000001600018742
001 UNPAIDS/WEIERINGS CAPITEC ,20211204,-300.00,0.00,101393.50,00001,00001,6059,0000001600018742
002 UNPAIDS/WEIERINGS FIRSTRAN,20211204,-280.00,0.00,101113.50,00001,00001,6059,0000001600018742
001 UNPAIDS/WEIERINGS ABSA.   ,20211204,-410.00,0.00,100703.50,00001,00001,6059,0000001600018742
008 UNPAIDS/WEIERINGS CAPITEC ,20211204,-2130.00,0.00,98573.50,00001,00001,6059,0000001600018742
002 UNPAIDS/WEIERINGS NEDBANK ,20211204,-480.00,0.00,98093.50,00001,00001,6059,0000001600018742
RFUNERALS CONTRA UFRF 000077  ,20211206,1710.00,0.00,99803.50,00001,00001,1032,0000001600018742
RFUNERALS CONTRA UFRF 000078  ,20211206,180.00,0.00,99983.50,00001,00001,1032,0000001600018742
MEB UFRF  CONTRA EBUR UFRF7771,20211206,-3511.50,0.00,96472.00,00001,00001,1053,0000001600018742
008 UNPAIDS/WEIERINGS CAPITEC ,20211206,-1580.00,0.00,94892.00,00001,00001,6059,0000001600018742
002 UNPAIDS/WEIERINGS CAPITEC ,20211206,-520.00,0.00,94372.00,00001,00001,6059,0000001600018742
RFUNERALS CONTRA UFRF 000079  ,20211207,1140.00,0.00,95512.00,00001,00001,1032,0000001600018742
RFUNERALS CONTRA UFRF 000080  ,20211207,4335.00,0.00,99847.00,00001,00001,1032,0000001600018742
RFUNERALS CONTRA UFRF 000081  ,20211207,1210.00,0.00,101057.00,00001,00001,1032,0000001600018742
RFUNERALS CONTRA UFRF 000082  ,20211207,3480.00,0.00,104537.00,00001,00001,1032,0000001600018742
MEB UFRF  CONTRA EBUR UFRF8128,20211207,-45052.60,0.00,59484.40,00001,00001,1053,0000001600018742
003 UNPAIDS/WEIERINGS CAPITEC ,20211207,-670.00,0.00,58814.40,00001,00001,6059,0000001600018742
001 UNPAIDS/WEIERINGS CAPITEC ,20211207,-180.00,0.00,58634.40,00001,00001,6059,0000001600018742
001 UNPAIDS/WEIERINGS NEDBANK ,20211207,-180.00,0.00,58454.40,00001,00001,6059,0000001600018742
002 UNPAIDS/WEIERINGS FIRSTRAN,20211207,-550.00,0.00,57904.40,00001,00001,6059,0000001600018742
RFUNERALS CONTRA UFRF 000083  ,20211208,1450.00,0.00,59354.40,00001,00001,1032,0000001600018742
MEB UFRF  CONTRA EBUR UFRF8263,20211208,-22428.00,0.00,36926.40,00001,00001,1053,0000001600018742
009 UNPAIDS/WEIERINGS CAPITEC ,20211208,-1880.00,0.00,35046.40,00001,00001,6059,0000001600018742
001 UNPAIDS/WEIERINGS FIRSTRAN,20211208,-250.00,0.00,34796.40,00001,00001,6059,0000001600018742
001 UNPAIDS/WEIERINGS NEDBANK ,20211208,-500.00,0.00,34296.40,00001,00001,6059,0000001600018742
001 UNPAIDS/WEIERINGS CAPITEC ,20211208,-550.00,0.00,33746.40,00001,00001,6059,0000001600018742
RFUNERALS CONTRA UFRF 000086  ,20211209,590.00,0.00,34336.40,00001,00001,1032,0000001600018742
RFUNERALS CONTRA UFRF 000085  ,20211209,180.00,0.00,34516.40,00001,00001,1032,0000001600018742
RFUNERALS CONTRA UFRF 000084  ,20211209,610.00,0.00,35126.40,00001,00001,1032,0000001600018742
MEB UFRF  CONTRA EBUR UFRF8335,20211209,-5634.00,0.00,29492.40,00001,00001,1053,0000001600018742
001 UNPAIDS/WEIERINGS NEDBANK ,20211209,-350.00,0.00,29142.40,00001,00001,6059,0000001600018742
001 UNPAIDS/WEIERINGS TYMEBANK,20211209,-180.00,0.00,28962.40,00001,00001,6059,0000001600018742
002 UNPAIDS/WEIERINGS CAPITEC ,20211209,-360.00,0.00,28602.40,00001,00001,6059,0000001600018742
001 UNPAIDS/WEIERINGS STANDARD,20211209,-700.00,0.00,27902.40,00001,00001,6059,0000001600018742
001 UNPAIDS/WEIERINGS TYMEBANK,20211209,-180.00,0.00,27722.40,00001,00001,6059,0000001600018742
RFUNERALS CONTRA UFRF 000087  ,20211210,4640.00,0.00,32362.40,00001,00001,1032,0000001600018742
MEB UFRF  CONTRA EBUR UFRF8425,20211210,-98.40,0.00,32264.00,00001,00001,1053,0000001600018742
001 UNPAIDS/WEIERINGS CAPITEC ,20211210,-250.00,0.00,32014.00,00001,00001,6059,0000001600018742
002 UNPAIDS/WEIERINGS TYMEBANK,20211210,-360.00,0.00,31654.00,00001,00001,6059,0000001600018742
001 UNPAIDS/WEIERINGS NEDBANK ,20211210,-300.00,0.00,31354.00,00001,00001,6059,0000001600018742
002 UNPAIDS/WEIERINGS CAPITEC ,20211210,-360.00,0.00,30994.00,00001,00001,6059,0000001600018742
001 UNPAIDS/WEIERINGS TYMEBANK,20211210,-360.00,0.00,30634.00,00001,00001,6059,0000001600018742
007 UNPAIDS/WEIERINGS CAPITEC ,20211211,-1720.00,0.00,28914.00,00001,00001,6059,0000001600018742
001 UNPAIDS/WEIERINGS ABSA.   ,20211211,-180.00,0.00,28734.00,00001,00001,6059,0000001600018742
RFUNERALS CONTRA UFRF 000088  ,20211213,4835.00,0.00,33569.00,00001,00001,1032,0000001600018742
RFUNERALS CONTRA UFRF 000089  ,20211213,970.00,0.00,34539.00,00001,00001,1032,0000001600018742
RFUNERALS CONTRA UFRF 000090  ,20211213,430.00,0.00,34969.00,00001,00001,1032,0000001600018742
MEB UFRF  CONTRA EBUR UFRF8530,20211213,-1110.00,0.00,33859.00,00001,00001,1053,0000001600018742
001 UNPAIDS/WEIERINGS CAPITEC ,20211213,-180.00,0.00,33679.00,00001,00001,6059,0000001600018742
001 UNPAIDS/WEIERINGS NEDBANK ,20211213,-180.00,0.00,33499.00,00001,00001,6059,0000001600018742
