Mercantile eBureau EPL7 Bulk File Import Response

Processed 25/11/2020 13:59  

File c:\epl\user_inst\UFVO\datain\UFVO0001.txt


EC BRANCH ACCOUNT     INST BATCH  U/C ENTRIES AMOUNT      ACTION    REFERENCE                      SHORT NAME                     RESULT
=============================================================================================================================================================================
52 450905 01600016723 UFVO 000001 9334 000002 00000943346 201125 44 VOGSPHERE CONTRA UFVO 000001   VOGSPHERE                      CONTRA ACCEPTED 201125 0000
=============================================================================================================================================================================

*** FILE TRANSACTIONS : 2 ***


*** FILE TOTAL AMOUNT : 9433.46 ***


*** FILE ACCEPTED ON PRE-CHECK ***

