0120190202ADO NADRESP   5009ACBJDSJ0001D0001DATAOUT20190202LIVE01800000
6747001001305987398503A00000445090501600009336100000079900190131020E1 ECASHMEUP CR1802580     190131KM KM MAKHAPISE               47001001305987398000000000000000000 21     4190202
6747001001305987398503A00000445090501600009336100000079900190228020E9 ECASHMEUP CR1802580     190131KM KM MAKHAPISE               47001001305987398000000000000000000 21     4190202
9920190202ADO NADRESP   50090000000010000000000000000000000000000000000000000000000000
