0120190128ADO NADRESP   5009ACBJDSJ0001D0001DATAOUT20190128LIVE01800000
6547001001422074666503A0000014509050160000933610000007990019012802099 ECASHMEUP CR7802975     190128M M GQWUETA                   47001001422074666000000000000000000 21000000190128
6547001001504948104503A0000034509050160000933610000007990019012802099 ECASHMEUP CR0800575     190127VJ VJ MABOPHA                 47001001504948104000000000000000000 21000000190128
6525065562771117100503A0000014509050160000933610000016694419012802000 ECASHMEUP 880833052     190127T THOBEKA MOLEMA              25065562771117100000000000000000000 21000000190128
6505100110095886069503A0000024509050160000933610000007990019012802099 ECASHMEUP CR2801925     190127JO JO LACAS                   05100110095886069000000000000000000 21000000190128
9920190128ADO NADRESP   50090000000040000000000000000000000000000000000000000000000000
