H04UFEC1812181812181812211812210000010026NADREQ    03
B2506550062281329485100000850000ECASHMEUP ch53          181221C C Morris                    181221002
B2506550062771117100100000166944ECASHMEUP 880833052     181221T THOBEKA MOLEMA              181221002
B6320050009256225691100000103214ECASHMEUP 280061042     181221B BP Theron                   181221002
Z92UFEC0000010000041812211812210000030000000000010000011201580000000000000000134308672276