H04UFEC1901251901251901311901310000010040NADREQ    03
B2506550062759381983200000079900ECASHMEUP CR9809220     190131A A Groobler                  190131002
B2506550062289834387200000159800ECASHMEUP CR7803135     190131AA AA Masongwa                190131002
B0510010010030853891200000079900ECASHMEUP CR1802025     190131DM DM Abrahams                190131002
B4700100001251432049200000079900ECASHMEUP CR9809815     190131J J Afrikander                190131002
B4700100001305987398200000079900ECASHMEUP CR1802580     190131KM KM Makhapise               190131002
B4700100001347998606200000079900ECASHMEUP CR3804275     190131MA MA Molete                  190131002
B4700100001425756229200000079900ECASHMEUP CR5809560     190131M M Phirino                   190131002
B1987650001164946297200000079900ECASHMEUP CR2801225     190131R R Line                      190131002
B6320050009309835337200000079900ECASHMEUP CR7807455     190131TV TV Nche                    190131002
B4700100001342034444200000079900ECASHMEUP CR8802016     190131T T Sikweta                   190131002
B2506550062529478506100000159800ECASHMEUP CR6803865     190131VN VN Zulu                    190131002
B4700100001406524237200000079900ECASHMEUP CR2808755     190131TS TS Mailula                 190131002
B2506550062711930835200000079900ECASHMEUP CR9801510     190131JB JB Tinte                   190131002
B2506650062745799934200000158900ECASHMEUP CR3808265     190131P P Nkuna                     190131002
Z92UFEC0000010000151901311901310000140000000000010000013574000000000000000000341621794133