H04UFEC1812181812181812251812250000010027NADREQ    03
B2506550062658813912100000700000ECASHMEUP CH29          181225TV 0817421795                 181225002
B0510010010037121152200000249600ECASHMEUP 480975503     181225O O Malebye                   181225002
B1987650001152797700100000030000ECASHMEUP 680170010     181225m mc botes                    181225002
Z92UFEC0000010000041812251812250000030000000000010000009796000000000000000000073848732764