H04UFEC1901231901231901251901250000010033NADREQ    03
B2506550062658813912100001000000ECASHMEUP CH29          190125TV 0817421795                 190125002
B2506550062281329485100000800000ECASHMEUP CH53          190125C C Morris                    190125002
B4700100001564086028100000075080ECASHMEUP 080394510     190125S Soza Ben Mavunda            190125002
B0510010010037121152100000100000ECASHMEUP 480975503     190125M Malebye                     190125002
B4700100001529230703200000079900ECASHMEUP CR4800259     190125B B Kolweni                   190125002
B4700100001411393781200000079900ECASHMEUP CR1805226     190125CL CL Masia                   190125002
B4700100001478168054200000079900ECASHMEUP CR6805863     190125C C Balamba                   190125002
B4700100001214665622200000159800ECASHMEUP CR5803635     190125C C Seochwareng               190125002
B4620050010394262303200000079900ECASHMEUP CR4800575     190125G G Molefe                    190125002
B4700100001239447831200000079900ECASHMEUP CR2801255     190125G G Masango                   190125002
B4700100001417963253200000079900ECASHMEUP CR0803155     190125GJ GJ Makhathithini           190125002
B4700100001385590139200000079900ECASHMEUP CR7805745     190125MI MI Maakamedi               190125002
B4700100001190164726200000079900ECASHMEUP CR0803957     190125M M Kati Kati                 190125002
B2506550062072766185200000079900ECASHMEUP CR4801195     190125M M Msweli                    190125002
B0510010000082111871100000079900ECASHMEUP CR6807160     190125N N Ngqasa-Sigcau             190125002
B4700100001293671566200000159800ECASHMEUP CR7805465     190125OP OP Nkgwedi                 190125002
B4700100001578261692200000159800ECASHMEUP CR1805736     190125P P Blou                      190125002
B1987650001904184960100000079900ECASHMEUP CR4803565     190125TR TR Makoopo                 190125002
B1987650001098251733200000079900ECASHMEUP CR4808825     190125VR VR Sai                     190125002
B4700100001232067863200000079900ECASHMEUP CR3808465     190125XA XA Sibiya                  190125002
B0510010010111316438100000079900ECASHMEUP CR9803765     190125E E Malabi                    190125002
Z92UFEC0000010000221901251901250000210000000000010000035730800000000000000000237174869297