RFUNERALS CONTRA UFRF 000001  ,20211008,20215.00,0.00,20215.00,00001,00001,1032,0000001600018742
RFUNERALS CONTRA UFRF 000002  ,20211008,610.00,0.00,20825.00,00001,00001,1032,0000001600018742
002 UNPAIDS/WEIERINGS STANDARD,20211009,-350.00,0.00,20475.00,00001,00001,6059,0000001600018742
045 UNPAIDS/WEIERINGS CAPITEC ,20211009,-10670.00,0.00,9805.00,00001,00001,6059,0000001600018742
002 UNPAIDS/WEIERINGS TYMEBANK,20211009,-670.00,0.00,9135.00,00001,00001,6059,0000001600018742
RFUNERALS CONTRA UFRF 000003  ,20211011,430.00,0.00,9565.00,00001,00001,1032,0000001600018742
001 UNPAIDS/WEIERINGS CAPITEC ,20211011,-300.00,0.00,9265.00,00001,00001,6059,0000001600018742
003 UNPAIDS/WEIERINGS NEDBANK ,20211011,-1030.00,0.00,8235.00,00001,00001,6059,0000001600018742
001 UNPAIDS/WEIERINGS CAPITEC ,20211011,-180.00,0.00,8055.00,00001,00001,6059,0000001600018742
002 UNPAIDS/WEIERINGS FIRSTRAN,20211011,-340.00,0.00,7715.00,00001,00001,6059,0000001600018742
RFUNERALS CONTRA UFRF 000004  ,20211012,180.00,0.00,7895.00,00001,00001,1032,0000001600018742
001 UNPAIDS/WEIERINGS TYMEBANK,20211012,-250.00,0.00,7645.00,00001,00001,6059,0000001600018742
003 UNPAIDS/WEIERINGS NEDBANK ,20211012,-900.00,0.00,6745.00,00001,00001,6059,0000001600018742
001 UNPAIDS/WEIERINGS CAPITEC ,20211013,-180.00,0.00,6565.00,00001,00001,6059,0000001600018742
001 UNPAIDS/WEIERINGS FIRSTRAN,20211013,-180.00,0.00,6385.00,00001,00001,6059,0000001600018742
RFUNERALS CONTRA UFRF 000005  ,20211015,600.00,0.00,6985.00,00001,00001,1032,0000001600018742
RFUNERALS CONTRA UFRF 000006  ,20211015,15644.00,0.00,22629.00,00001,00001,1032,0000001600018742
RFUNERALS CONTRA UFRF 000007  ,20211015,880.00,0.00,23509.00,00001,00001,1032,0000001600018742
RFUNERALS CONTRA UFRF 000008  ,20211016,180.00,0.00,23689.00,00001,00001,1032,0000001600018742
002 UNPAIDS/WEIERINGS TYMEBANK,20211016,-243.00,0.00,23446.00,00001,00001,6059,0000001600018742
007 UNPAIDS/WEIERINGS CAPITEC ,20211016,-1950.00,0.00,21496.00,00001,00001,6059,0000001600018742
001 UNPAIDS/WEIERINGS ABSA.   ,20211016,-300.00,0.00,21196.00,00001,00001,6059,0000001600018742
RFUNERALS CONTRA UFRF 000009  ,20211018,790.00,0.00,21986.00,00001,00001,1032,0000001600018742
001 UNPAIDS/WEIERINGS ABSA.   ,20211018,-250.00,0.00,21736.00,00001,00001,6059,0000001600018742
001 UNPAIDS/WEIERINGS CAPITEC ,20211018,-250.00,0.00,21486.00,00001,00001,6059,0000001600018742
003 UNPAIDS/WEIERINGS FIRSTRAN,20211018,-780.00,0.00,20706.00,00001,00001,6059,0000001600018742
001 UNPAIDS/WEIERINGS NEDBANK ,20211018,-180.00,0.00,20526.00,00001,00001,6059,0000001600018742
002 UNPAIDS/WEIERINGS CAPITEC ,20211018,-626.00,0.00,19900.00,00001,00001,6059,0000001600018742
005 UNPAIDS/WEIERINGS CAPITEC ,20211019,-940.00,0.00,18960.00,00001,00001,6059,0000001600018742
001 UNPAIDS/WEIERINGS NEDBANK ,20211019,-250.00,0.00,18710.00,00001,00001,6059,0000001600018742
RFUNERALS CONTRA UFRF 000010  ,20211020,3510.00,0.00,22220.00,00001,00001,1032,0000001600018742
001 UNPAIDS/WEIERINGS CAPITEC ,20211020,-250.00,0.00,21970.00,00001,00001,6059,0000001600018742
RFUNERALS CONTRA UFRF 000011  ,20211021,830.00,0.00,22800.00,00001,00001,1032,0000001600018742
RFUNERALS CONTRA UFRF 000012  ,20211021,250.00,0.00,23050.00,00001,00001,1032,0000001600018742
001 UNPAIDS/WEIERINGS CAPITEC ,20211021,-180.00,0.00,22870.00,00001,00001,6059,0000001600018742
001 UNPAIDS/WEIERINGS ABSA.   ,20211021,-300.00,0.00,22570.00,00001,00001,6059,0000001600018742
001 UNPAIDS/WEIERINGS BIDVEST ,20211021,-250.00,0.00,22320.00,00001,00001,6059,0000001600018742
RFUNERALS CONTRA UFRF 000014  ,20211022,2560.00,0.00,24880.00,00001,00001,1032,0000001600018742
001 UNPAIDS/WEIERINGS FIRSTRAN,20211022,-180.00,0.00,24700.00,00001,00001,6059,0000001600018742
RFUNERALS CONTRA UFRF 000015  ,20211023,430.00,0.00,25130.00,00001,00001,1032,0000001600018742
001 UNPAIDS/WEIERINGS CAPITEC ,20211023,-180.00,0.00,24950.00,00001,00001,6059,0000001600018742
001 UNPAIDS/WEIERINGS NEDBANK ,20211023,-180.00,0.00,24770.00,00001,00001,6059,0000001600018742
RFUNERALS CONTRA UFRF 000013  ,20211025,24115.00,0.00,48885.00,00001,00001,1032,0000001600018742
RFUNERALS CONTRA UFRF 000016  ,20211025,180.00,0.00,49065.00,00001,00001,1032,0000001600018742
MEB UFRF  CONTRA EBUR UFRF2725,20211025,-15440.60,0.00,33624.40,00001,00001,1053,0000001600018742
001 UNPAIDS/WEIERINGS NEDBANK ,20211025,-250.00,0.00,33374.40,00001,00001,6059,0000001600018742
001 UNPAIDS/WEIERINGS CAPITEC ,20211025,-450.00,0.00,32924.40,00001,00001,6059,0000001600018742
RFUNERALS CONTRA UFRF 000017  ,20211026,9650.00,0.00,42574.40,00001,00001,1032,0000001600018742
RFUNERALS CONTRA UFRF 000018  ,20211026,600.00,0.00,43174.40,00001,00001,1032,0000001600018742
001 UNPAIDS/WEIERINGS STANDARD,20211026,-180.00,0.00,42994.40,00001,00001,6059,0000001600018742
001 UNPAIDS/WEIERINGS STANDARD,20211026,-450.00,0.00,42544.40,00001,00001,6059,0000001600018742
013 UNPAIDS/WEIERINGS CAPITEC ,20211026,-4090.00,0.00,38454.40,00001,00001,6059,0000001600018742
001 UNPAIDS/WEIERINGS STANDARD,20211026,-400.00,0.00,38054.40,00001,00001,6059,0000001600018742
002 UNPAIDS/WEIERINGS ABSA.   ,20211026,-530.00,0.00,37524.40,00001,00001,6059,0000001600018742
RFUNERALS CONTRA UFRF 000020  ,20211027,12865.00,0.00,50389.40,00001,00001,1032,0000001600018742
001 UNPAIDS/WEIERINGS NEDBANK ,20211027,-180.00,0.00,50209.40,00001,00001,6059,0000001600018742
013 UNPAIDS/WEIERINGS CAPITEC ,20211027,-2670.00,0.00,47539.40,00001,00001,6059,0000001600018742
001 UNPAIDS/WEIERINGS FIRSTRAN,20211027,-180.00,0.00,47359.40,00001,00001,6059,0000001600018742
